<?xml version="1.0" encoding="UTF-8"?>
<session version="1.0">
<refactoring comment="Copy element &apos;icon.png&apos; to &apos;Test&apos;&#x0D;&#x0A;- Original project: &apos;Test&apos;&#x0D;&#x0A;- Destination element: &apos;Test&apos;&#x0D;&#x0A;- Original element: &apos;icon.png&apos;" description="Copy file" destination="=Test" element1="Images/icon.png" files="1" flags="589830" folders="0" id="org.eclipse.jdt.ui.copy" policy="org.eclipse.jdt.ui.copyResources" stamp="1542184172790" units="0" version="1.0"/>
</session>