352201,1,1,1968,2,1.3,-1.1,-0.68,24.9,0,0,1.26,1014.83,62,3.4,23.7,90,2,2,0.5,1,0.5
352201,1,1,1969,2,-0.5,1.4,0.87,26.6,0,0,-0.04,1012.82,61,3,25.8,45,1,1,0,0,0
352201,1,1,1970,2,-1,-0.5,0.41,26.5,0,0,0.69,1014.13,61,2.3,26.2,45,0,0,0,0,0
352201,1,1,1971,2,2,-0.6,-1.52,24.7,0,0,0.19,1011.35,59,3.4,23.9,90,2,2,8.7,4,2.18
352201,1,1,1972,2,1.1,-0.1,-0.42,26.1,0,0,0.1,1009.23,62,3.6,24.4,90,0,0,0.3,1,0.3
352201,1,1,1973,2,-1.4,-0.8,1.47,27.2,0,0,0.27,1012.06,61,2.1,26,90,1,2,0,0,0
352201,1,1,1974,2,2.1,0.3,-1.79,25,0,0,0.8,1012.58,60,2.5,22.1,90,2,0,0.1,1,0.1
352201,1,1,1975,2,0.8,0.8,-0.61,25.6,0,0,-0.59,1012.04,67,2.5,24.7,90,2,1,28.6,4,7.15
352201,1,1,1976,2,1.7,0.2,-1.4,25.1,0,0,0.58,1010.85,68,1.9,24,90,2,0,24.2,4,6.05
352201,1,1,1977,2,1.2,-0.2,0.26,26.8,0,0,0.48,1015.23,62,2.6,21.7,360,0,0,0,0,0
352201,1,1,1978,2,-2.7,0.2,0.9,26.4,0,0,-1.02,1014.83,70,2.3,23.6,90,1,0,23.5,6,3.92
352201,1,1,1979,2,1,0.9,0.35,26.4,0,0,0.29,1010.86,66,1.4,25.6,90,0,1,26,5,5.2
352201,1,1,1980,2,0.3,-0.5,0.61,26.5,0,0,-0.15,1012.62,60,1.8,24.6,90,1,0,2.2,1,2.2
352201,1,1,1983,2,-3.6,0.8,2.9,28.6,0,0,-1.42,1012.34,71,1,25,90,1,1,19.8,4,4.95
352201,1,1,1984,2,0.9,1.9,-0.56,26.6,0,0,0.04,1011.09,63,1.5,25.3,90,2,1,4.3,4,1.08
352201,1,1,1985,2,1.2,0.3,-0.61,25.8,0,0,-1.23,1007.43,73,0.9,24.8,90,2,0,20.8,5,4.16
352201,1,1,1986,2,-1,-1,-0.18,26,0,0,-0.45,1011.78,65,1.7,24.7,90,0,2,1.6,2,0.8
352201,1,1,1987,2,-1.2,0.7,1.18,27.3,0,0,0.06,1014.28,68,1.6,24.8,45,1,1,14.7,3,4.9
352201,1,1,1988,2,-0.4,0.5,0.66,26.2,0,0,0.58,1011.76,68,1.9,25.8,90,1,0,30.3,7,4.33
352201,1,1,1989,2,1.2,1,-1.32,25.4,0,0,-0.03,1012.09,62,1.5,24.3,90,2,1,4,1,4
352201,1,1,1990,2,-1.8,-0.8,0.52,26.5,0,0,-0.2,1013.24,69,1.5,24.8,90,1,2,20.1,5,4.02
352201,1,1,1991,2,0.3,-1.6,0.32,26.4,0,0,0.67,1013.39,64,1.1,24.4,90,0,2,0,0,0
352201,1,1,1992,2,-0.9,0.3,1.87,27.6,0,0,-1.1,1012.42,68,1,23.8,90,1,0,22.3,2,11.15
352201,1,1,1993,2,-0.7,0.6,1,26.6,0,0,-0.52,1013.76,63,1.1,24.1,90,1,1,9.5,3,3.17
352201,1,1,1994,2,0.3,0.3,0.19,26.1,0,0,0.29,1009.86,66,1,26.3,45,0,0,60.2,5,12.04
352201,1,1,1995,2,-0.1,0,0.97,26.8,0,0,0.28,1013.33,62,1,23.7,90,1,0,0.3,1,0.3
352201,1,1,1996,2,0.3,-0.8,-0.59,25.7,0,0,-0.35,1014.56,67,1.4,22,45,2,2,37.6,5,7.52
352201,1,1,1997,2,1.7,-0.1,-0.6,25.9,0,0,-0.44,1011.95,68,0.9,23.9,90,2,0,2.4,4,0.6
352201,1,1,1998,2,-2,-0.3,2.77,28.8,0,0,1.13,1012.38,65,0.8,25.8,45,1,0,20.2,2,10.1
352201,1,1,1999,2,1,-0.2,-1.25,25.5,0,0,-0.56,1013.98,62,1,25.2,45,2,0,0,0,0
352201,1,1,2000,2,1.7,0.6,-1.25,25.3,0,0,-0.12,1011.94,67,0.9,23.8,45,2,1,31.9,3,10.63
352201,1,1,2001,2,1.7,-1.2,-0.73,26,0,0,-0.33,1010.81,65,1,25.7,90,2,2,9.1,3,3.03
352201,1,1,2002,2,1.1,0.3,-0.21,26.3,0,0,-0.14,1014.04,67,0.9,25.3,45,0,0,18.5,3,6.17
352201,1,1,2003,2,-0.7,0.7,0.93,26.8,0,0,0.04,1012.76,73,0.7,25.2,45,1,1,44.3,4,11.08
352201,1,1,2004,2,1.2,-0.3,0.33,26.5,0,0,0.62,1013.11,72,1.2,23.3,90,0,0,77.6,5,15.52
352201,1,1,2005,2,-3.1,-0.2,0.8,26.1,0,0,-0.86,1011.1,60,0.9,27.3,45,1,0,0,0,0
352201,1,1,2006,2,0.1,-1.4,-0.46,26,0,0,-1.04,1013.07,64,1.8,26.1,90,0,2,5,3,1.67
352201,1,1,2007,2,-0.1,2.2,0.51,26.4,0,0,0.07,1011.84,61,1.4,25.6,45,1,1,2,5,0.4
352201,1,1,2008,2,2.6,-0.6,-1.41,25,0,0,-0.63,1014.79,70,2.8,21.4,90,2,2,39,5,7.8
352201,1,1,2009,2,1.9,-0.2,-0.73,25.8,0,0,0.13,1009.87,64,2.5,27.1,90,2,0,0.9,2,0.45
352201,1,1,2010,2,-1.5,-1.5,1.52,27.2,0,0,1.25,1011.16,64,2.4,26.8,90,1,2,2.4,3,0.8
352201,1,1,2011,2,2.7,-0.6,-1.56,25.6,0,0,0,1010.71,65,2.7,25.4,90,2,2,0,0,0
352201,1,1,2012,2,0.5,-0.2,-0.71,26.2,0,0,0,1010.18,69,2.6,25.6,45,2,0,43.9,3,14.63
352201,1,1,2013,2,-0.2,0.7,-0.17,25.9,0,0,0,1011.96,64,2.1,26.9,90,0,1,2.3,1,2.3
353201,1,1,1954,2,-0.3,0.5,-0.02,26.2,0,0,0,1009.42509053051,64,2.8,25.1,270,0,0,2.3,3,0.77
353201,1,1,1955,2,1.9,-0.3,-0.71,25.7,0,0,0,1010.11,62,2.9,24.9,270,2,0,9.7,3,3.23
353201,1,1,1956,2,1.6,2.3,-1.3,25.8,0,0,0,1010.06,61,3.5,25.9,315,2,1,42.4,6,7.07
353201,1,1,1957,2,-0.1,-0.5,-0.35,26.1,0,0,0,1012.33,60,3.2,23.9,90,0,0,5.2,4,1.3
353201,1,1,1958,2,-0.5,-0.1,1.45,27.2,0,0,0.22,1013.27,60,4.5,24.2,90,1,0,13.9,4,3.48
353201,1,1,1959,2,-1.4,-0.3,0.81,26.1,0,0,0.01,1011.74,57,4.6,26.1,270,1,0,19.1,3,6.37
353201,1,1,1960,2,0.1,-0.7,-0.27,25.9,0,0,0,1013.79,50,3.2,25.5,90,0,2,0.3,1,0.3
353201,1,1,1961,2,0.9,-0.6,-0.27,26.3,0,0,-0.28,1010.88,66,3.1,24.6,135,0,2,32.1,9,3.57
353201,1,1,1962,2,-0.3,1.2,-0.99,26.2,0,0,1.78,1014.55,58,2.3,22.5,90,2,1,0,0,0
353201,1,1,1963,2,0.6,0.5,-0.82,25.8,0,0,0.82,1013.97,59,2.9,22.8,90,2,0,0.5,3,0.17
353201,1,1,1964,2,0,0.7,0.44,26.3,0,0,-1.18,1013.42,61,3.1,23.5,90,0,1,5.2,3,1.73
353201,1,1,1965,2,0.4,0.6,-0.32,26,0,0,-0.72,1011.04,69,3,24.5,360,0,1,25.3,6,4.22
353201,1,1,1966,2,-0.2,0.9,1.18,26.8,0,0,-0.51,1011.59,61,2.6,25.9,360,1,1,11.1,3,3.7
353201,1,1,1967,2,1.7,-0.1,-0.94,26.2,0,0,0.31,1012.7,61,2.4,22.9,90,2,0,38.3,3,12.77
353201,1,1,1968,2,1.3,-1.1,-0.68,24.9,0,0,1.26,1013.16,59,3.1,23.2,90,2,2,0.4,1,0.4
353201,1,1,1969,2,-0.5,-0.3,0.87,26.6,0,0,-0.04,1011.38,58,3,24.8,90,1,0,0,0,0
353201,1,1,1970,2,-1,0,0.41,26.5,0,0,0.69,1012.98,60,1.7,24.2,270,0,0,4.4,3,1.47
353201,1,1,1971,2,2,-0.6,-1.52,24.7,0,0,0.19,1011.19,63,2.7,23.1,360,2,2,8.3,3,2.77
353201,1,1,1972,2,1.1,0.2,-0.42,26.1,0,0,0.1,1009.38,63,3.1,24.2,90,0,0,24.7,3,8.23
353201,1,1,1973,2,-1.4,-0.4,1.47,27.2,0,0,0.27,1012.11,55,2.6,26.1,360,1,0,0,0,0
353201,1,1,1974,2,2.1,0.3,-1.79,25,0,0,0.8,1012.22,58,3.9,22.4,90,2,0,4.6,3,1.53
353201,1,1,1975,2,0.8,0.8,-0.61,25.6,0,0,-0.59,1011.97,64,2.3,24.5,360,2,1,32,4,8
353201,1,1,1976,2,1.7,0.2,-1.4,25.1,0,0,0.58,1011.06,65,3,23.6,360,2,0,53.1,2,26.55
353201,1,1,1977,2,1.2,0,0.26,26.8,0,0,0.48,1015.13,62,3.6,21.5,90,0,0,0,0,0
353201,1,1,1978,2,-2.7,1.2,0.9,26.4,0,0,-1.02,1014.79,68,2.7,23.5,90,1,1,7.9,5,1.58
353201,1,1,1979,2,1,1.3,0.35,26.4,0,0,0.29,1010.83,67,2.1,24.4,90,0,1,79.6,4,19.9
353201,1,1,1980,2,0.3,-0.6,0.61,26.5,0,0,-0.15,1012.49,62,2.4,23.2,90,1,2,23.3,3,7.77
353201,1,1,1981,2,-0.2,0.2,-0.15,25.4,0,0,0.15,1011.47,64,2,25.8,360,0,0,14.6,4,3.65
353201,1,1,1982,2,0.3,0.6,-0.14,26.5,0,0,0.98,1011.35,66,2.1,24.2,360,0,1,5.9,4,1.48
353201,1,1,1983,2,-3.6,0.5,2.9,28.6,0,0,-1.42,1011.89,65,2,24.2,90,1,0,0.3,1,0.3
353201,1,1,1984,2,0.9,0,-0.56,26.6,0,0,0.04,1011.37,69,1.9,24.1,360,2,0,89.5,4,22.38
353201,1,1,1985,2,1.2,0.3,-0.61,25.8,0,0,-1.23,1007.56,65,1.7,24.6,225,2,0,11.7,6,1.95
353201,1,1,1986,2,-1,0.1,-0.18,26,0,0,-0.45,1011.97,60,1.3,24,90,0,0,5.7,1,5.7
353201,1,1,1987,2,-1.2,-1.7,1.18,27.3,0,0,0.06,1014.32,64,1.6,24,90,1,2,15.5,5,3.1
353201,1,1,1988,2,-0.4,0.1,0.66,26.2,0,0,0.58,1011.81,67,1.6,24.8,135,1,0,30.8,6,5.13
353201,1,1,1989,2,1.2,1,-1.32,25.4,0,0,-0.03,1012.03,62,1.3,23.3,135,2,1,0,0,0
353201,1,1,1990,2,-1.8,0.6,0.52,26.5,0,0,-0.2,1013.06,63,1.4,24.5,135,1,1,3.9,5,0.78
353201,1,1,1991,2,0.3,0.9,0.32,26.4,0,0,0.67,1013.4,60,1.2,23.3,90,0,1,0,0,0
353201,1,1,1992,2,-0.9,0.4,1.87,27.6,0,0,-1.1,1012.38,60,2.1,23.2,180,1,0,27.5,2,13.75
353201,1,1,1993,2,-0.7,-0.7,1,26.6,0,0,-0.52,1013.91,61,1.8,22.7,90,1,2,0,0,0
353201,1,1,1994,2,0.3,-0.8,0.19,26.1,0,0,0.29,1009.71,61,1.4,26.1,90,0,2,6.9,1,6.9
353201,1,1,1995,2,-0.1,1.6,0.97,26.8,0,0,0.28,1013.32,60,1.6,22.8,180,1,1,0.6,2,0.3
353201,1,1,1996,2,0.3,-0.8,-0.59,25.7,0,0,-0.35,1014.16,65,1.4,21.6,90,2,2,28.5,3,9.5
353201,1,1,1997,2,1.7,2.1,-0.6,25.9,0,0,-0.44,1011.63,63,1.5,23.6,90,2,1,0,0,0
353201,1,1,1998,2,-2,0,2.77,28.8,0,0,1.13,1012.26,59,1.6,25.4,360,1,0,9.4,4,2.35
353201,1,1,1999,2,1,-0.2,-1.25,25.5,0,0,-0.56,1013.73,60,1.7,24.5,90,2,0,4.3,1,4.3
353201,1,1,2000,2,1.7,0.6,-1.25,25.3,0,0,-0.12,1011.78,68,1.3,23,90,2,1,15.9,4,3.98
353201,1,1,2001,2,1.7,-1.2,-0.73,26,0,0,-0.33,1010.45,61,1.4,25.2,90,2,2,0,0,0
353201,1,1,2002,2,1.1,-1.2,-0.21,26.3,0,0,-0.14,1013.83,67,1.4,24.7,360,0,2,3,1,3
353201,1,1,2003,2,-0.7,0.1,0.93,26.8,0,0,0.04,1012.64,68,1.4,24.5,315,1,0,31.4,5,6.28
353201,1,1,2004,2,1.2,-0.8,0.33,26.5,0,0,0.62,1012.88,70,1.6,22.8,180,0,2,94.5,4,23.63
353201,1,1,2005,2,-3.1,-1.5,0.8,26.1,0,0,-0.86,1011.08,58,1.8,26.7,360,1,2,0,0,0
353201,1,1,2006,2,0.1,-1.4,-0.46,26,0,0,-1.04,1012.94,64,1.7,25.1,180,0,2,16.1,4,4.03
353201,1,1,2007,2,-0.1,0.8,0.51,26.4,0,0,0.07,1012,59,2.1,24.4,360,1,1,13.6,2,6.8
353201,1,1,2008,2,2.6,-0.6,-1.41,25,0,0,-0.63,1013.81,68,2.5,21.8,90,2,2,42.6,5,8.52
353201,1,1,2009,2,1.9,-0.2,-0.73,25.8,0,0,0.13,1009.57,65,1.9,25.6,270,2,0,10,3,3.33
353201,1,1,2010,2,-1.5,-0.4,1.52,27.2,0,0,1.25,1010.54,60,2,26,135,1,0,0.8,2,0.4
353201,1,1,2011,2,2.7,-0.6,-1.56,25.6,0,0,0,1010.26,67,1.8,24.1,90,2,2,19.2,3,6.4
353201,1,1,2012,2,0.5,-0.2,-0.71,26.2,0,0,0,1009.49,65,1.7,25.4,360,2,0,2.4,3,0.8
353201,1,1,2013,2,-0.2,-0.8,-0.17,25.9,0,0,0,1011.35,62,2.1,26.4,315,0,2,0,0,0
354201,1,1,1970,2,-1,0.2,0.41,26.5,0,0,0.69,1012.56,61,1.7,25.1,90,0,0,0.8,0,0.8
354201,1,1,1971,2,2,-0.6,-1.52,24.7,0,0,0.19,1011.09,68,1.6,23.4,90,2,2,13.2,5,2.64
354201,1,1,1972,2,1.1,0,-0.42,26.1,0,0,0.1,1009.21,61,2.1,25.2,90,0,0,4.4,2,2.2
354201,1,1,1973,2,-1.4,-0.5,1.47,27.2,0,0,0.27,1011.83,52,1.4,27.1,360,1,0,0,0,0
354201,1,1,1974,2,2.1,0.3,-1.79,25,0,0,0.8,1012.22,56,2.6,22.7,90,2,0,3.5,1,3.5
354201,1,1,1975,2,0.8,0.8,-0.61,25.6,0,0,-0.59,1011.67,61,1.8,25.4,90,2,1,51.8,3,17.27
354201,1,1,1976,2,1.7,0.2,-1.4,25.1,0,0,0.58,1010.68,64,1.4,24.6,360,2,0,55.6,2,27.8
354201,1,1,1977,2,1.2,-0.2,0.26,26.8,0,0,0.48,1015.07,57,2.6,22.1,45,0,0,0,0,0
354201,1,1,1978,2,-2.7,0.9,0.9,26.4,0,0,-1.02,1014.6,68,2.2,24.2,45,1,1,19.2,3,6.4
354201,1,1,1979,2,1,-0.2,0.35,26.4,0,0,0.29,1010.39,60,1,26.1,90,0,0,23.7,5,4.74
354201,1,1,1980,2,0.3,-0.2,0.61,26.5,0,0,-0.15,1012.13,59,2,24.7,90,1,0,5,2,2.5
354201,1,1,1981,2,-0.2,0.2,-0.15,25.4,0,0,0.15,1010.86,54,1.7,26.2,90,0,0,3.9,2,1.95
354201,1,1,1982,2,0.3,-0.6,-0.14,26.5,0,0,0.98,1010.9,62,1.5,25.3,90,0,2,31.9,4,7.98
354201,1,1,1983,2,-3.6,1.1,2.9,28.6,0,0,-1.42,1011.23,61,2.38601945277701,26.1,0,1,1,0,0,0
354201,1,1,1984,2,0.9,-0.8,-0.56,26.6,0,0,0.04,1010.21,60,2.6,26,90,2,2,5.6,3,1.87
354201,1,1,1985,2,1.2,0.3,-0.61,25.8,0,0,-1.23,1006.89,68,1.5,25.5,90,2,0,33.2,4,8.3
354201,1,1,1986,2,-1,1.7,-0.18,26,0,0,-0.45,1011.16,59,2.9,25.4,90,0,1,23.2,1,23.2
354201,1,1,1987,2,-1.2,-1.9,1.18,27.3,0,0,0.06,1013.86,66,2.5,25.2,90,1,2,28.5,5,5.7
354201,1,1,1988,2,-0.4,-0.2,0.66,26.2,0,0,0.58,1011.09,64,2.6,26.4,90,1,0,12.6,6,2.1
354201,1,1,1989,2,1.2,1,-1.32,25.4,0,0,-0.03,1011.35,60,1.9,24.7,90,2,1,0,0,0
354201,1,1,1990,2,-1.8,-0.3,0.52,26.5,0,0,-0.2,1012.99,69,1.9,24.9,90,1,0,42.3,3,14.1
354201,1,1,1991,2,0.3,-0.6,0.32,26.4,0,0,0.67,1013.04,59,1.9,24.7,90,0,2,0,0,0
354201,1,1,1992,2,-0.9,0.4,1.87,27.6,0,0,-1.1,1011.79,61,1.8,24.5,90,1,0,7,2,3.5
354201,1,1,1993,2,-0.7,0.8,1,26.6,0,0,-0.52,1013.15,60,1.1,24.3,90,1,1,9.4,2,4.7
354201,1,1,1994,2,0.3,0.5,0.19,26.1,0,0,0.29,1009.36,64,1.5,26.7,90,0,0,35,1,35
354201,1,1,1995,2,-0.1,1.2,0.97,26.8,0,0,0.28,1012.76,58,1.5,24.2,90,1,1,30.2,2,15.1
354201,1,1,1996,2,0.3,-0.8,-0.59,25.7,0,0,-0.35,1014.02,62,1.8,22.4,90,2,2,115.1,4,28.78
354201,1,1,1997,2,1.7,-1.1,-0.6,25.9,0,0,-0.44,1011.6,67,1.2,24.1,90,2,2,32.9,1,32.9
354201,1,1,1998,2,-2,-0.3,2.77,28.8,0,0,1.13,1012.16,63,1.1,26.5,45,1,0,35.6,2,17.8
354201,1,1,1999,2,1,-0.2,-1.25,25.5,0,0,-0.56,1013.72,56,1.5,25.5,90,2,0,0,0,0
354201,1,1,2000,2,1.7,0.6,-1.25,25.3,0,0,-0.12,1011.56,68,1.7,24.1,90,2,1,6.3,5,1.26
354201,1,1,2001,2,1.7,-1.2,-0.73,26,0,0,-0.33,1009.87,65,1.4,26,90,2,2,7.4,1,7.4
354201,1,1,2002,2,1.1,0.8,-0.21,26.3,0,0,-0.14,1013.12,66,1.2,25.5,90,0,1,5.3,1,5.3
354201,1,1,2003,2,-0.7,0.2,0.93,26.8,0,0,0.04,1011.9,67,1,25.6,90,1,0,30.6,4,7.65
354201,1,1,2004,2,1.2,-1.2,0.33,26.5,0,0,0.62,1012.29,69,1.4,23.5,90,0,2,64.9,3,21.63
354201,1,1,2005,2,-3.1,-1.9,0.8,26.1,0,0,-0.86,1010.18,59,1.5,27.5,90,1,2,15.7,0,15.7
354201,1,1,2006,2,0.1,-1.4,-0.46,26,0,0,-1.04,1012.22,62,2,26.2,90,0,2,4,5,0.8
354201,1,1,2007,2,-0.1,-0.6,0.51,26.4,0,0,0.07,1011.56,57,1.2,26,90,1,2,11.9,2,5.95
354201,1,1,2008,2,2.6,-0.6,-1.41,25,0,0,-0.63,1014.12,72,2.3,21.6,90,2,2,31.1,5,6.22
354201,1,1,2009,2,1.9,-0.2,-0.73,25.8,0,0,0.13,1009.4,63,2.1,26.8,0,2,0,0.2,3,0.07
354201,1,1,2010,2,-1.5,0,1.52,27.2,0,0,1.25,1010.5,64,2.3,26.8,90,1,0,36.4,1,36.4
354201,1,1,2011,2,2.7,-0.6,-1.56,25.6,0,0,0,1010.45,63,2.3,25.1,90,2,2,23.1,6,3.85
354201,1,1,2012,2,0.5,-0.2,-0.71,26.2,0,0,0,1009.85,62,2.5,26.1,90,2,0,0.2,3,0.07
354201,1,1,2013,2,-0.2,-0.8,-0.17,25.9,0,0,0,1011.7,60,2.1,27.2,90,0,2,0,1,0
356201,1,1,1954,2,-0.3,0.5,-0.02,26.2,0,0,0,1013.71,63,4.9,25.8,90,0,0,8.1,4,2.03
356201,1,1,1955,2,1.9,-0.3,-0.71,25.7,0,0,0,1011.61,61,4.2,25.9,90,2,0,0,0,0
356201,1,1,1956,2,1.6,2.3,-1.3,25.8,0,0,0,1011.83,66,4.1,26.1,90,2,1,27.4,5,5.48
356201,1,1,1957,2,-0.1,0,-0.35,26.1,0,0,0,1014.25,62,5.1,24.6,90,0,0,0.6,1,0.6
356201,1,1,1958,2,-0.5,0,1.45,27.2,0,0,0.22,1015.52,69,3.3,23.4,90,1,0,35.9,8,4.49
356201,1,1,1959,2,-1.4,-0.4,0.81,26.1,0,0,0.01,1013.29,60,3.3,26.9,90,1,0,15.4,5,3.08
356201,1,1,1960,2,0.1,0.8,-0.27,25.9,0,0,0,1015.58,56,3.7,25,90,0,1,19.3,4,4.83
356201,1,1,1961,2,0.9,-0.7,-0.27,26.3,0,0,-0.28,1012.66,69,3.9,25.3,90,0,2,4.3,2,2.15
356201,1,1,1962,2,-0.3,-1.7,-0.99,26.2,0,0,1.78,1016.41,67,3.5,23,90,2,2,0,0,0
356201,1,1,1963,2,0.6,-0.5,-0.82,25.8,0,0,0.82,1015.3,70,3.9,22.4,90,2,0,5.7,2,2.85
356201,1,1,1964,2,0,0.5,0.44,26.3,0,0,-1.18,1014.15,71,4.1,23.8,90,0,0,0.2,1,0.2
356201,1,1,1965,2,0.4,0.7,-0.32,26,0,0,-0.72,1011.46,66,2.8,25.8,90,0,1,17.2,4,4.3
356201,1,1,1966,2,-0.2,1.5,1.18,26.8,0,0,-0.51,1012.25,65,2.4,25.7,90,1,1,66.6,7,9.51
356201,1,1,1967,2,1.7,0.9,-0.94,26.2,0,0,0.31,1013.95,61,6.3,22.8,90,2,1,0.8,2,0.4
356201,1,1,1968,2,1.3,-1.1,-0.68,24.9,0,0,1.26,1014.63,64,6.2,21.7,90,2,2,12.2,3,4.07
356201,1,1,1969,2,-0.5,-0.8,0.87,26.6,0,0,-0.04,1011.9,58,3.9,25.4,90,1,2,0,0,0
356201,1,1,1970,2,-1,0.2,0.41,26.5,0,0,0.69,1013.14,58,3.8,25.7,90,0,0,0.1,1,0.1
356201,1,1,1971,2,2,-0.6,-1.52,24.7,0,0,0.19,1011.87,61,4.4,23.1,90,2,2,93.5,5,18.7
356201,1,1,1972,2,1.1,0,-0.42,26.1,0,0,0.1,1010.09,60,3.7,24.8,90,0,0,38.1,2,19.05
356201,1,1,1973,2,-1.4,-0.5,1.47,27.2,0,0,0.27,1012.43,53,3.8,27.6,90,1,0,0,0,0
356201,1,1,1974,2,2.1,0.3,-1.79,25,0,0,0.8,1012.79,60,5,22.6,90,2,0,0.8,2,0.4
356201,1,1,1975,2,0.8,0.8,-0.61,25.6,0,0,-0.59,1012.21,62,3.6,25.3,135,2,1,25.2,2,12.6
356201,1,1,1976,2,1.7,0.2,-1.4,25.1,0,0,0.58,1010.81,61,3.4,25.3,135,2,0,1.2,2,0.6
356201,1,1,1977,2,1.2,-0.2,0.26,26.8,0,0,0.48,1015.72,64,5.2,20.5,135,0,0,0,0,0
356201,1,1,1978,2,-2.7,0.9,0.9,26.4,0,0,-1.02,1014.91,68,4.8,23.8,135,1,1,3.7,3,1.23
356201,1,1,1979,2,1,-0.2,0.35,26.4,0,0,0.29,1010.91,61,3.8,25.7,90,0,0,13.3,2,6.65
356201,1,1,1980,2,0.3,-0.2,0.61,26.5,0,0,-0.15,1012.9,67,4.5,23.6,90,1,0,3.4,2,1.7
356201,1,1,1981,2,-0.2,0.2,-0.15,25.4,0,0,0.15,1011.47,68,3.5,25.6,90,0,0,16.2,2,8.1
356201,1,1,1982,2,0.3,-0.6,-0.14,26.5,0,0,0.98,1011.69,66,2.9,24.1,135,0,2,85.3,4,21.33
356201,1,1,1983,2,-3.6,1.1,2.9,28.6,0,0,-1.42,1012.06,66,2.9,24.9,135,1,1,6.3,7,0.9
356201,1,1,1984,2,0.9,-0.8,-0.56,26.6,0,0,0.04,1011.41,71,3.4,24.5,90,2,2,0.7,1,0.7
356201,1,1,1985,2,1.2,0.3,-0.61,25.8,0,0,-1.23,1007.48,63,1.9,25.1,90,2,0,45.4,8,5.68
356201,1,1,1986,2,-1,1.7,-0.18,26,0,0,-0.45,1011.94,65,3.6,24.3,90,0,1,0,0,0
356201,1,1,1987,2,-1.2,-1.9,1.18,27.3,0,0,0.06,1014.38,66,2.5,24.8,90,1,2,22.3,3,7.43
356201,1,1,1988,2,-0.4,-0.2,0.66,26.2,0,0,0.58,1011.99,60,2.7,25.4,90,1,0,6.9,2,3.45
356201,1,1,1989,2,1.2,1,-1.32,25.4,0,0,-0.03,1012.4,70,2.8,23.6,90,2,1,0,0,0
356201,1,1,1990,2,-1.8,-0.3,0.52,26.5,0,0,-0.2,1013.55,61,2.2,23.9,90,1,0,87.6,10,8.76
356201,1,1,1991,2,0.3,-0.6,0.32,26.4,0,0,0.67,1013.34,68,2.4,24.4,90,0,2,0,0,0
356201,1,1,1992,2,-0.9,0.4,1.87,27.6,0,0,-1.1,1012.54,62,2.8,23.6,90,1,0,26.7,6,4.45
356201,1,1,1993,2,-0.7,0.8,1,26.6,0,0,-0.52,1013.93,72,2.2,24,90,1,1,4.2,3,1.4
356201,1,1,1994,2,0.3,0.5,0.19,26.1,0,0,0.29,1009.87,60,2.2,25.8,135,0,0,129.5,8,16.19
356201,1,1,1995,2,-0.1,1.2,0.97,26.8,0,0,0.28,1013.28,65,3.1,23.5,135,1,1,4.4,4,1.1
356201,1,1,1996,2,0.3,-0.8,-0.59,25.7,0,0,-0.35,1014.32,70,2.8,21.8,90,2,2,4.7,2,2.35
356201,1,1,1997,2,1.7,-1.1,-0.6,25.9,0,0,-0.44,1012.02,68,2.3,23.2,90,2,2,33.6,4,8.4
356201,1,1,1998,2,-2,-0.3,2.77,28.8,0,0,1.13,1012.83,62,1.9,25.5,135,1,0,73.3,7,10.47
356201,1,1,1999,2,1,-0.2,-1.25,25.5,0,0,-0.56,1014.5,65,2.6,24.6,90,2,0,0,0,0
356201,1,1,2000,2,1.7,0.6,-1.25,25.3,0,0,-0.12,1012.4,66,1.9,22.9,90,2,1,43.6,4,10.9
356201,1,1,2001,2,1.7,-1.2,-0.73,26,0,0,-0.33,1011.38,64,2.1,24.7,90,2,2,6.9,2,3.45
356201,1,1,2002,2,1.1,0.8,-0.21,26.3,0,0,-0.14,1014.44,69,1.8,25,90,0,1,0,0,0
356201,1,1,2003,2,-0.7,0.2,0.93,26.8,0,0,0.04,1013.01,70,1.3,25.2,90,1,0,91.1,8,11.39
356201,1,1,2004,2,1.2,-1.2,0.33,26.5,0,0,0.62,1013.55,57,1.4,22.6,90,0,2,92,8,11.5
356201,1,1,2005,2,-3.1,-1.9,0.8,26.1,0,0,-0.86,1011.25,63,1.8,27.2,135,1,2,0,0,0
356201,1,1,2006,2,0.1,-1.4,-0.46,26,0,0,-1.04,1013.37,62,2.2,25.1,90,0,2,12,3,4
356201,1,1,2007,2,-0.1,-0.6,0.51,26.4,0,0,0.07,1011.91,65,1.4,25.5,135,1,2,39,3,13
356201,1,1,2008,2,2.6,-0.6,-1.41,25,0,0,-0.63,1015.5,60,3.3,20.3,135,2,2,7.7,3,2.57
356201,1,1,2009,2,1.9,-0.2,-0.73,25.8,0,0,0.13,1010.25,69,1.6,26.9,135,2,0,0,2,0
356201,1,1,2010,2,-1.5,0,1.52,27.2,0,0,1.25,1011.36,64,1.4,26.1,135,1,0,38.7,9,4.3
356201,1,1,2011,2,2.7,-0.6,-1.56,25.6,0,0,0,1011.07,64,1.5,24.4,135,2,2,14.8,1,14.8
356201,1,1,2012,2,0.5,-0.2,-0.71,26.2,0,0,0,1010.54,60,1.6,25,135,2,0,6,2,3
356201,1,1,2013,2,-0.2,-0.3,-0.17,25.9,0,0,0,1012.24,60,1.6,26.4,135,0,0,0.6,1,0.6
356301,1,1,2006,2,0.1,-1.4,-0.46,26,0,0,-1.04,1013.34,68,1.3,24.2,90,0,2,5.1,3,1.7
356301,1,1,2007,2,-0.1,-0.3,0.51,26.4,0,0,0.07,1012.03,68,0.5,24.4,0,1,0,27.9,4,6.98
356301,1,1,2008,2,2.6,-0.6,-1.41,25,0,0,-0.63,1015.05,66,1.2,19.8,90,2,2,5.9,3,1.97
356301,1,1,2009,2,1.9,-0.2,-0.73,25.8,0,0,0.13,1010.1,74,0.8,25.9,90,2,0,3.6,3,1.2
356301,1,1,2010,2,-1.5,-1.3,1.52,27.2,0,0,1.25,1011.1,69,0.7,25.4,90,1,2,60.7,8,7.59
356301,1,1,2011,2,2.7,-0.6,-1.56,25.6,0,0,0,1010.93,71,0.5,23.5,90,2,2,15,2,7.5
356301,1,1,2012,2,0.5,-0.2,-0.71,26.2,0,0,0,1010.45,66,0.4,24.2,90,2,0,4.4,2,2.2
356301,1,1,2013,2,-0.2,0.5,-0.17,25.9,0,0,0,1012.28,66,0.8,25.6,135,0,0,0,0,0
357201,1,1,1953,2,-0.5,-0.1,0.38,26.6,0,0,0,1016.02,63,3.1,25.1,90,0,0,37.4,4,9.35
357201,1,1,1954,2,-0.3,0.5,-0.02,26.2,0,0,0,1013.77,68,3.2,24.1,90,0,0,72.9,2,36.45
357201,1,1,1955,2,1.9,-0.3,-0.71,25.7,0,0,0,1011.12,63,3.7,24.9,90,2,0,0,0,0
357201,1,1,1956,2,1.6,2.3,-1.3,25.8,0,0,0,1010.64,71,2.3,25,90,2,1,48.7,5,9.74
357201,1,1,1957,2,-0.1,0.7,-0.35,26.1,0,0,0,1013.36,71,2.7,23.1,135,0,1,0,0,0
357201,1,1,1958,2,-0.5,-0.1,1.45,27.2,0,0,0.22,1014.58,74,2.4,22.2,90,1,0,65.5,5,13.1
357201,1,1,1959,2,-1.4,-0.3,0.81,26.1,0,0,0.01,1012.55,66,3.7,25.3,90,1,0,14.2,8,1.78
357201,1,1,1960,2,0.1,-0.7,-0.27,25.9,0,0,0,1015.18,65,4.2,23.9,90,0,2,16.7,3,5.57
357201,1,1,1961,2,0.9,-0.7,-0.27,26.3,0,0,-0.28,1011.91,63,3.2,25,90,0,2,0,0,0
357201,1,1,1962,2,-0.3,-0.6,-0.99,26.2,0,0,1.78,1015.6,59,2.4,23.1,90,2,2,0,0,0
357201,1,1,1963,2,0.6,1.1,-0.82,25.8,0,0,0.82,1015.11,57,3.9,23.1,90,2,1,0,0,0
357201,1,1,1964,2,0,0.7,0.44,26.3,0,0,-1.18,1014.03,58,5.7,24.1,90,0,1,0,0,0
357201,1,1,1965,2,0.4,1.8,-0.32,26,0,0,-0.72,1010.13,62,3.4,26.6,90,0,1,17.7,4,4.43
357201,1,1,1966,2,-0.2,0.9,1.18,26.8,0,0,-0.51,1010.98,66,3.2,25.5,135,1,1,49.4,9,5.49
357201,1,1,1967,2,1.7,0.6,-0.94,26.2,0,0,0.31,1013.19,59,5.8,23,90,2,1,8.7,1,8.7
357201,1,1,1968,2,1.3,-1.1,-0.68,24.9,0,0,1.26,1013.62,63,4.2,21.4,90,2,2,31,4,7.75
357201,1,1,1969,2,-0.5,-0.3,0.87,26.6,0,0,-0.04,1010.99,62,3,25.2,90,1,0,0.5,1,0.5
357201,1,1,1970,2,-1,-0.2,0.41,26.5,0,0,0.69,1012.06,62,3.2,25.8,90,0,0,0.3,2,0.15
357201,1,1,1971,2,2,-0.6,-1.52,24.7,0,0,0.19,1011.07,71,3,23.4,45,2,2,23,3,7.67
357201,1,1,1972,2,1.1,0.1,-0.42,26.1,0,0,0.1,1009.18,69,3.7,23.9,45,0,0,17.1,3,5.7
357201,1,1,1973,2,-1.4,-0.4,1.47,27.2,0,0,0.27,1011.63,68,3.8,26.4,90,1,0,0.9,1,0.9
357201,1,1,1974,2,2.1,0.3,-1.79,25,0,0,0.8,1012.21,64,4.3,21.6,45,2,0,2.9,3,0.97
357201,1,1,1975,2,0.8,0.8,-0.61,25.6,0,0,-0.59,1011.49,69,2.6,24.2,90,2,1,31.1,4,7.78
357201,1,1,1976,2,1.7,0.2,-1.4,25.1,0,0,0.58,1010.35,68,2.6,24.1,90,2,0,3.6,3,1.2
357201,1,1,1977,2,1.2,0,0.26,26.8,0,0,0.48,1015.36,63,2.3,20.2,90,0,0,0,0,0
357201,1,1,1978,2,-2.7,1.2,0.9,26.4,0,0,-1.02,1014.56,68,2,23.1,45,1,1,52.5,4,13.13
357201,1,1,1979,2,1,-0.3,0.35,26.4,0,0,0.29,1010.53,65,2.4,25.4,135,0,0,6.9,2,3.45
357201,1,1,1980,2,0.3,0.5,0.61,26.5,0,0,-0.15,1012.48,66,3.5,23.6,90,1,0,27.8,3,9.27
357201,1,1,1988,2,-0.4,0.1,0.66,26.2,0,0,0.58,1012.47,60,1.8,25.3,90,1,0,44,4,11
357201,1,1,1989,2,1.2,1,-1.32,25.4,0,0,-0.03,1012.89,71,2.3,23.6,90,2,1,0,0,0
357201,1,1,1990,2,-1.8,-0.3,0.52,26.5,0,0,-0.2,1013.63,62,2,23.8,90,1,0,116.4,3,38.8
357201,1,1,1991,2,0.3,0.6,0.32,26.4,0,0,0.67,1013.37,71,1.6,24.5,90,0,1,0,2,0
357201,1,1,1992,2,-0.9,0.4,1.87,27.6,0,0,-1.1,1012.85,66,1.9,23.4,90,1,0,50.4,1,50.4
357201,1,1,1993,2,-0.7,0.5,1,26.6,0,0,-0.52,1014.1,72,1.4,23.8,90,1,0,13.1,4,3.28
357201,1,1,1994,2,0.3,0.3,0.19,26.1,0,0,0.29,1010.5,69,0.8,25.4,90,0,0,91.8,9,10.2
357201,1,1,1995,2,-0.1,1.6,0.97,26.8,0,0,0.28,1013.86,63,1.2,23.4,90,1,1,26.2,0,26.2
357201,1,1,1996,2,0.3,-0.8,-0.59,25.7,0,0,-0.35,1014.64,69,1.8,21.7,90,2,2,1.8,6,0.3
357201,1,1,1997,2,1.7,-0.8,-0.6,25.9,0,0,-0.44,1012.62,73,1.6,23.3,90,2,2,34.1,5,6.82
357201,1,1,1998,2,-2,0,2.77,28.8,0,0,1.13,1013.19,62,1.2,25.2,90,1,0,50.9,3,16.97
357201,1,1,1999,2,1,-0.2,-1.25,25.5,0,0,-0.56,1014.9,66,2.4,24.5,90,2,0,0,2,0
357201,1,1,2000,2,1.7,0.6,-1.25,25.3,0,0,-0.12,1012.74,64,2.2,23.2,90,2,1,17.1,7,2.44
357201,1,1,2001,2,1.7,-1.2,-0.73,26,0,0,-0.33,1011.84,66,1.7,24.6,90,2,2,8.9,3,2.97
357201,1,1,2002,2,1.1,0.6,-0.21,26.3,0,0,-0.14,1014.82,67,1.9,25.2,90,0,1,34.6,2,17.3
357201,1,1,2003,2,-0.7,0.1,0.93,26.8,0,0,0.04,1013.33,71,1.1,25.6,90,1,0,21.4,1,21.4
357201,1,1,2004,2,1.2,-0.8,0.33,26.5,0,0,0.62,1014.02,60,1.1,22.8,90,0,2,88.3,5,17.66
357201,1,1,2005,2,-3.1,-0.6,0.8,26.1,0,0,-0.86,1011.68,63,1.8,27,135,1,2,0,4,0
357201,1,1,2006,2,0.1,-1.4,-0.46,26,0,0,-1.04,1013.75,64,2.5,25.3,90,0,2,24,0,24
357201,1,1,2007,2,-0.1,-1.7,0.51,26.4,0,0,0.07,1012.32,64,1.2,25.4,135,1,2,20.7,3,6.9
357201,1,1,2008,2,2.6,-0.6,-1.41,25,0,0,-0.63,1015.62,64,2.8,20.4,90,2,2,3.4,2,1.7
357201,1,1,2009,2,1.9,-0.2,-0.73,25.8,0,0,0.13,1010.4,74,1.8,26.8,135,2,0,16.2,1,16.2
357201,1,1,2010,2,-1.5,-0.4,1.52,27.2,0,0,1.25,1011.51,71,1.4,26,90,1,0,59.9,4,14.98
357201,1,1,2011,2,2.7,-0.6,-1.56,25.6,0,0,0,1011.2,65,2.2,24.5,90,2,2,4.8,9,0.53
357201,1,1,2012,2,0.5,-0.2,-0.71,26.2,0,0,0,1010.59,61,2.2,25.1,90,2,0,1.2,0,1.2
357201,1,1,2013,2,-0.2,2.2,-0.17,25.9,0,0,0,1012.17,61,2.3,26.6,90,0,1,0,6,0
357301,1,1,2006,2,0.1,-1.4,-0.46,26,0,0,-1.04,1013.94,66,3.7,24.1,90,0,2,58.6,4,14.65
357301,1,1,2007,2,-0.1,0.3,0.51,26.4,0,0,0.07,1012.44,64,1,24.5,90,1,0,26.4,6,4.4
357301,1,1,2008,2,2.6,-0.6,-1.41,25,0,0,-0.63,1015.73,63,3.9,19.6,90,2,2,1.5,1,1.5
357301,1,1,2009,2,1.9,-0.2,-0.73,25.8,0,0,0.13,1010.62,74,1.9,26,90,2,0,1.2,2,0.6
357301,1,1,2010,2,-1.5,0.2,1.52,27.2,0,0,1.25,1011.71,67,1.5,25.4,90,1,0,54.5,7,7.79
357301,1,1,2011,2,2.7,-0.6,-1.56,25.6,0,0,0,1011.47,71,1.7,23.7,90,2,2,2.3,2,1.15
357301,1,1,2012,2,0.5,-0.2,-0.71,26.2,0,0,0,1011.02,64,1.5,23.8,90,2,0,1,1,1
357301,1,1,2013,2,-0.2,-0.8,-0.17,25.9,0,0,0,1012.59,64,2.5,25.4,90,0,2,0,0,0
381201,2,2,1953,2,-0.5,-0.1,0.38,26.6,0,0,0,1014.01,66,2.2,26.3,45,0,0,31.6,3,10.53
381201,2,2,1954,2,-0.3,0.5,-0.02,26.2,0,0,0,1011.84,64,1.4,26.6,45,0,0,81.8,2,40.9
381201,2,2,1955,2,1.9,-0.3,-0.71,25.7,0,0,0,1009.27,59,1.9,26.9,45,2,0,0,0,0
381201,2,2,1956,2,1.6,2.3,-1.3,25.8,0,0,0,1009.62,63,1.5,27.3,45,2,1,24.8,7,3.54
381201,2,2,1957,2,-0.1,0,-0.35,26.1,0,0,0,1011.82,57,2.3,25.9,45,0,0,1.8,1,1.8
381201,2,2,1958,2,-0.5,0,1.45,27.2,0,0,0.22,1013.06,68,2.1,24.9,45,1,0,41.6,7,5.94
381201,2,2,1959,2,-1.4,-0.4,0.81,26.1,0,0,0.01,1011.05,63,4,27.4,45,1,0,8.7,6,1.45
381201,2,2,1960,2,0.1,0.8,-0.27,25.9,0,0,0,1012.52,61,3.8,25.6,45,0,1,0,0,0
381201,2,2,1961,2,0.9,-0.7,-0.27,26.3,0,0,-0.28,1009.66,68,2.7,27.1,45,0,2,7.5,4,1.88
381201,2,2,1962,2,-0.3,-1.7,-0.99,26.2,0,0,1.78,1013.96,59,3.3,25,45,2,2,0,0,0
381201,2,2,1963,2,0.6,-0.5,-0.82,25.8,0,0,0.82,1014.26,67,2,23.1,45,2,0,3.5,1,3.5
381201,2,2,1964,2,0,0.5,0.44,26.3,0,0,-1.18,1013.16,66,2.1,24.6,45,0,0,12.9,1,12.9
381201,2,2,1965,2,0.4,0.7,-0.32,26,0,0,-0.72,1010.84,68,1.7,26.5,45,0,1,3.9,4,0.98
381201,2,2,1966,2,-0.2,1.5,1.18,26.8,0,0,-0.51,1011.32,67,2.1,26.7,45,1,1,76.5,9,8.5
381201,2,2,1967,2,1.7,0.9,-0.94,26.2,0,0,0.31,1012.98,66,1.6,23.6,45,2,1,49.5,5,9.9
381201,2,2,1968,2,1.3,-1.1,-0.68,24.9,0,0,1.26,1013.07,62,3.3,24,45,2,2,10.8,4,2.7
381201,2,2,1969,2,-0.5,-0.8,0.87,26.6,0,0,-0.04,1010.8,59,2.8,26.2,45,1,2,0.4,1,0.4
381201,2,2,1970,2,-1,0.2,0.41,26.5,0,0,0.69,1011.96,60,2.5,25.6,45,0,0,0.8,1,0.8
381201,2,2,1971,2,2,-0.6,-1.52,24.7,0,0,0.19,1010.84,62,2.1,24,45,2,2,37.4,5,7.48
381201,2,2,1972,2,1.1,0,-0.42,26.1,0,0,0.1,1009.26,59,2.6,25.8,45,0,0,4.7,2,2.35
381201,2,2,1973,2,-1.4,-0.5,1.47,27.2,0,0,0.27,1011.83,56,2,27.5,45,1,0,0,0,0
381201,2,2,1974,2,2.1,0.3,-1.79,25,0,0,0.8,1012.05,58,1.9,23.7,45,2,0,1.4,1,1.4
381201,2,2,1975,2,0.8,0.8,-0.61,25.6,0,0,-0.59,1011.62,61,1.3,26.1,45,2,1,3.7,2,1.85
381201,2,2,1976,2,1.7,0.2,-1.4,25.1,0,0,0.58,1010.51,60,1.3,25.5,90,2,0,5.6,2,2.8
381201,2,2,1977,2,1.2,-0.2,0.26,26.8,0,0,0.48,1014.86,57,1.9,22.6,90,0,0,0,0,0
381201,2,2,1978,2,-2.7,0.9,0.9,26.4,0,0,-1.02,1014.54,62,2,25.4,90,1,1,6.3,1,6.3
381201,2,2,1979,2,1,-0.2,0.35,26.4,0,0,0.29,1010.87,60,1.1,26.5,90,0,0,19.4,2,9.7
381201,2,2,1980,2,0.3,-0.2,0.61,26.5,0,0,-0.15,1012.45,56,1.8,25.5,90,1,0,3.3,1,3.3
381201,2,2,1981,2,-0.2,0.2,-0.15,25.4,0,0,0.15,1011.05,58,1.5,26.5,90,0,0,8.3,1,8.3
381201,2,2,1982,2,0.3,-0.6,-0.14,26.5,0,0,0.98,1011.06,68,1.5,25.8,90,0,2,49.8,6,8.3
381201,2,2,1983,2,-3.6,1.1,2.9,28.6,0,0,-1.42,1011.54,64,1.2,26.8,225,1,1,3.9,1,3.9
381201,2,2,1984,2,0.9,-0.8,-0.56,26.6,0,0,0.04,1010.74,62,1.3,26.1,45,2,2,4.9,1,4.9
381201,2,2,1985,2,1.2,0.3,-0.61,25.8,0,0,-1.23,1007.1,61,1.3,26.7,180,2,0,5,3,1.67
381201,2,2,1986,2,-1,1.7,-0.18,26,0,0,-0.45,1011.52,60,1.1,25.5,45,0,1,0,0,0
381201,2,2,1987,2,-1.2,-1.9,1.18,27.3,0,0,0.06,1013.75,61,1.1,26.1,45,1,2,26.8,5,5.36
381201,2,2,1988,2,-0.4,-0.2,0.66,26.2,0,0,0.58,1011.47,67,1.3,26.4,45,1,0,17.5,3,5.83
381201,2,2,1989,2,1.2,1,-1.32,25.4,0,0,-0.03,1011.79,60,1.1,25.1,90,2,1,0,0,0
381201,2,2,1990,2,-1.8,-0.3,0.52,26.5,0,0,-0.2,1012.47,69,1.1,25.6,45,1,0,76.2,6,12.7
381201,2,2,1991,2,0.3,-0.6,0.32,26.4,0,0,0.67,1012.81,60,1.2,25.4,45,0,2,0,0,0
381201,2,2,1992,2,-0.9,0.4,1.87,27.6,0,0,-1.1,1011.98,62,2,25.6,225,1,0,21.1,3,7.03
381201,2,2,1993,2,-0.7,0.8,1,26.6,0,0,-0.52,1013.27,59,1.2,24.8,45,1,1,10.5,3,3.5
381201,2,2,1994,2,0.3,0.5,0.19,26.1,0,0,0.29,1009.5,67,1.5,27.8,225,0,0,40.6,5,8.12
381201,2,2,1995,2,-0.1,1.2,0.97,26.8,0,0,0.28,1012.49,63,1.3,25.4,45,1,1,31.7,3,10.57
381201,2,2,1996,2,0.3,-0.8,-0.59,25.7,0,0,-0.35,1013.48,66,1.4,23.5,45,2,2,2.1,2,1.05
381201,2,2,1997,2,1.7,-1.1,-0.6,25.9,0,0,-0.44,1011.12,65,0.8,25.5,45,2,2,3.7,2,1.85
381201,2,2,1998,2,-2,-0.3,2.77,28.8,0,0,1.13,1011.93,67,0.8,27.3,45,1,0,75.8,5,15.16
381201,2,2,1999,2,1,-0.2,-1.25,25.5,0,0,-0.56,1013.26,60,1,25.9,45,2,0,0,0,0
381201,2,2,2000,2,1.7,0.6,-1.25,25.3,0,0,-0.12,1011.43,65,3.4,24.8,90,2,1,19.3,5,3.86
381201,2,2,2001,2,1.7,-1.2,-0.73,26,0,0,-0.33,1010.27,64,3.7,26.6,90,2,2,0,0,0
381201,2,2,2002,2,1.1,0.8,-0.21,26.3,0,0,-0.14,1013.46,65,3.2,26.3,90,0,1,0.1,1,0.1
381201,2,2,2003,2,-0.7,0.2,0.93,26.8,0,0,0.04,1012.2,72,3.3,26,90,1,0,53.3,7,7.61
381201,2,2,2004,2,1.2,-1.2,0.33,26.5,0,0,0.62,1012.57,67,4.3,24,90,0,2,75,7,10.71
381201,2,2,2005,2,-3.1,-1.9,0.8,26.1,0,0,-0.86,1010.79,54,3.4,28.6,90,1,2,0,0,0
381201,2,2,2006,2,0.1,-1.4,-0.46,26,0,0,-1.04,1012.64,62,3.8,26.2,90,0,2,34.1,5,6.82
381201,2,2,2007,2,-0.1,-0.6,0.51,26.4,0,0,0.07,1011.57,53,3.8,26.9,180,1,2,59.1,2,29.55
381201,2,2,2008,2,2.6,-0.6,-1.41,25,0,0,-0.63,1014.08,65,4.9,22.4,90,2,2,2.7,2,1.35
381201,2,2,2009,2,1.9,-0.2,-0.73,25.8,0,0,0.13,1009.9,59,3.3,27.4,90,2,0,4.9,1,4.9
381201,2,2,2010,2,-1.5,0,1.52,27.2,0,0,1.25,1010.92,65,3.7,27.6,90,1,0,15.9,2,7.95
381201,2,2,2011,2,2.7,-0.6,-1.56,25.6,0,0,0,1010.58,60,3.6,25.8,90,2,2,1.6,2,0.8
381201,2,2,2012,2,0.5,-0.2,-0.71,26.2,0,0,0,1009.73,65,2.4,26.5,90,2,0,0,1,0
381201,2,2,2013,2,-0.2,-1.5,-0.17,25.9,0,0,0,1011.21,55,3.5,27.6,360,0,2,0,0,0
381301,2,2,2006,2,0.1,-1.4,-0.46,26,0,0,-1.04,1012.76,68,0.5,25.6,360,0,2,0,3,0
381301,2,2,2007,2,-0.1,0.3,0.51,26.4,0,0,0.07,1011.73,70,0.4,26,45,1,0,0,3,0
381301,2,2,2008,2,2.6,-0.6,-1.41,25,0,0,-0.63,1014.23,67,0.4,22.3,360,2,2,4.2,3,1.4
381301,2,2,2009,2,1.9,-0.2,-0.73,25.8,0,0,0.13,1009.67,70,0.8,26.7,180,2,0,0.2,2,0.1
381301,2,2,2010,2,-1.5,0.4,1.52,27.2,0,0,1.25,1010.46,70,0.6,27.4,180,1,0,0.2,6,0.03
381301,2,2,2011,2,2.7,-0.6,-1.56,25.6,0,0,0,1010.69,74,0.7,25,45,2,2,13.7,4,3.43
381301,2,2,2012,2,0.5,-0.2,-0.71,26.2,0,0,0,1010.18,67,0.6,25.6,360,2,0,0,2,0
381301,2,2,2013,2,-0.2,-0.8,-0.17,25.9,0,0,0,1011.03,67,0.8,27.3,90,0,2,7.6,0,7.6
383201,1,1,1953,2,-0.5,-0.1,0.38,26.6,0,0,0,1015.44,68,3.9,25.6,45,0,0,10.5,4,2.63
383201,1,1,1954,2,-0.3,0.5,-0.02,26.2,0,0,0,1013.21,65,4.6,25.6,90,0,0,0.5,2,0.25
383201,1,1,1955,2,1.9,-0.3,-0.71,25.7,0,0,0,1010.27,57,4,25.9,90,2,0,0,0,0
383201,1,1,1956,2,1.6,2.3,-1.3,25.8,0,0,0,1010.96,71,2.8,25.8,90,2,1,42.5,8,5.31
383201,1,1,1957,2,-0.1,0,-0.35,26.1,0,0,0,1013.46,62,6,24.5,90,0,0,3,2,1.5
383201,1,1,1958,2,-0.5,0,1.45,27.2,0,0,0.22,1014.62,69,5.4,23.1,90,1,0,5.1,3,1.7
383201,1,1,1959,2,-1.4,-0.4,0.81,26.1,0,0,0.01,1012.75,66,3.6,26.2,225,1,0,43,6,7.17
383201,1,1,1960,2,0.1,0.8,-0.27,25.9,0,0,0,1015.05,60,8,24.3,45,0,1,18.6,2,9.3
383201,1,1,1961,2,0.9,-0.7,-0.27,26.3,0,0,-0.28,1012,64,4.7,25.7,45,0,2,0,0,0
383201,1,1,1962,2,-0.3,-1.7,-0.99,26.2,0,0,1.78,1016.08,65,6.6,23.1,45,2,2,2.3,2,1.15
383201,1,1,1963,2,0.6,-0.5,-0.82,25.8,0,0,0.82,1014.97,63,5.5,22.9,45,2,0,0,0,0
383201,1,1,1964,2,0,0.5,0.44,26.3,0,0,-1.18,1013.79,65,4.6,24.5,45,0,0,0.2,1,0.2
383201,1,1,1965,2,0.4,0.7,-0.32,26,0,0,-0.72,1010.72,69,2.9,25.9,45,0,1,25,3,8.33
383201,1,1,1966,2,-0.2,1.5,1.18,26.8,0,0,-0.51,1012.33,70,3.1,25.8,45,1,1,61.4,6,10.23
383201,1,1,1967,2,1.7,0.9,-0.94,26.2,0,0,0.31,1013.13,62,4.5,23.8,45,2,1,0,0,0
383201,1,1,1968,2,1.3,-1.1,-0.68,24.9,0,0,1.26,1013.91,66,4.3,22.3,90,2,2,7.4,1,7.4
383201,1,1,1969,2,-0.5,-0.8,0.87,26.6,0,0,-0.04,1011.24,60,2.9,25.9,90,1,2,2.2,1,2.2
383201,1,1,1970,2,-1,0.2,0.41,26.5,0,0,0.69,1012.34,58,2.5,26,90,0,0,1.1,2,0.55
383201,1,1,1971,2,2,-0.6,-1.52,24.7,0,0,0.19,1011.66,62,2.8,23.8,90,2,2,72.7,2,36.35
383201,1,1,1972,2,1.1,0,-0.42,26.1,0,0,0.1,1009.29,66,4.3,24.5,90,0,0,54.6,5,10.92
383201,1,1,1973,2,-1.4,-0.5,1.47,27.2,0,0,0.27,1011.8,57,4.7,27.4,90,1,0,0,0,0
383201,1,1,1974,2,2.1,0.3,-1.79,25,0,0,0.8,1012.45,60,5.4,23,45,2,0,0.2,1,0.2
383201,1,1,1975,2,0.8,0.8,-0.61,25.6,0,0,-0.59,1012.13,66,3.2,25.1,90,2,1,35,5,7
383201,1,1,1976,2,1.7,0.2,-1.4,25.1,0,0,0.58,1010.83,62,2.6,25.5,90,2,0,21.2,5,4.24
383201,1,1,1977,2,1.2,-0.2,0.26,26.8,0,0,0.48,1015.63,60,5.9,21.5,90,0,0,0.5,1,0.5
383201,1,1,1978,2,-2.7,0.9,0.9,26.4,0,0,-1.02,1014.73,60,4.5,24.8,45,1,1,10.2,1,10.2
383201,1,1,1979,2,1,-0.2,0.35,26.4,0,0,0.29,1010.99,60,4.3,26.6,90,0,0,14.2,3,4.73
383201,1,1,1980,2,0.3,-0.2,0.61,26.5,0,0,-0.15,1012.85,60,4.4,25.2,90,1,0,5.4,2,2.7
383201,1,1,1984,2,0.9,-0.8,-0.56,26.6,0,0,0.04,1011.11,71,4.3,24.4,45,2,2,0,0,0
383201,1,1,1985,2,1.2,0.3,-0.61,25.8,0,0,-1.23,1007,65,3.1,25.6,45,2,0,4.6,5,0.92
383201,1,1,1986,2,-1,1.7,-0.18,26,0,0,-0.45,1011.79,66,3,24.4,90,0,1,0,0,0
383201,1,1,1987,2,-1.2,-1.9,1.18,27.3,0,0,0.06,1014.11,65,2.1,24.8,45,1,2,11,2,5.5
383201,1,1,1988,2,-0.4,-0.2,0.66,26.2,0,0,0.58,1011.63,60,2.5,25.7,90,1,0,2.8,1,2.8
383201,1,1,1989,2,1.2,1,-1.32,25.4,0,0,-0.03,1012.21,71,2.5,23.8,90,2,1,0,0,0
383201,1,1,1990,2,-1.8,-0.3,0.52,26.5,0,0,-0.2,1012.87,64,1.7,24.3,90,1,0,103.7,7,14.81
383201,1,1,1991,2,0.3,-0.6,0.32,26.4,0,0,0.67,1012.97,71,2.4,24.5,45,0,2,0,0,0
383201,1,1,1992,2,-0.9,0.4,1.87,27.6,0,0,-1.1,1012.29,62,2.1,24,45,1,0,31.4,9,3.49
383201,1,1,1993,2,-0.7,0.8,1,26.6,0,0,-0.52,1013.34,68,1.9,24.2,90,1,1,0.5,1,0.5
383201,1,1,1994,2,0.3,0.5,0.19,26.1,0,0,0.29,1009.62,62,2,26.2,90,0,0,78.1,3,26.03
383201,1,1,1995,2,-0.1,1.2,0.97,26.8,0,0,0.28,1013.07,61,2.2,24,90,1,1,14,4,3.5
383201,1,1,1996,2,0.3,-0.8,-0.59,25.7,0,0,-0.35,1013.95,69,3.3,22.3,45,2,2,0.2,1,0.2
383201,1,1,1997,2,1.7,-1.1,-0.6,25.9,0,0,-0.44,1011.71,66,1.7,23.9,45,2,2,32.1,3,10.7
383201,1,1,1998,2,-2,-0.3,2.77,28.8,0,0,1.13,1012.2,62,1.7,26.6,45,1,0,34.6,7,4.94
383201,1,1,1999,2,1,-0.2,-1.25,25.5,0,0,-0.56,1013.86,66,4,25.1,45,2,0,0,0,0
383201,1,1,2000,2,1.7,0.6,-1.25,25.3,0,0,-0.12,1011.66,64,2.3,23.6,45,2,1,9.5,4,2.38
383201,1,1,2001,2,1.7,-1.2,-0.73,26,0,0,-0.33,1010.71,66,2.1,25.2,45,2,2,0,0,0
383201,1,1,2002,2,1.1,0.8,-0.21,26.3,0,0,-0.14,1013.62,67,1.5,25.7,45,0,1,0,0,0
383201,1,1,2003,2,-0.7,0.2,0.93,26.8,0,0,0.04,1012.18,70,1.1,26,45,1,0,67.7,4,16.93
383201,1,1,2004,2,1.2,-1.2,0.33,26.5,0,0,0.62,1012.66,58,1.3,23.1,45,0,2,64.6,7,9.23
383201,1,1,2005,2,-3.1,-1.9,0.8,26.1,0,0,-0.86,1010.75,66,1.8,27.8,90,1,2,0,0,0
383201,1,1,2006,2,0.1,-1.4,-0.46,26,0,0,-1.04,1012.75,62,2.3,25.4,45,0,2,33.8,5,6.76
383201,1,1,2007,2,-0.1,-0.6,0.51,26.4,0,0,0.07,1011.38,64,1.1,26.5,45,1,2,6.9,4,1.73
383201,1,1,2008,2,2.6,-0.6,-1.41,25,0,0,-0.63,1014.53,60,2.9,20.8,45,2,2,0.1,3,0.03
383201,1,1,2009,2,1.9,-0.2,-0.73,25.8,0,0,0.13,1009.59,63,1.7,27.3,90,2,0,0.9,1,0.9
383201,1,1,2010,2,-1.5,0,1.52,27.2,0,0,1.25,1010.56,63,1.9,27.6,45,1,0,2.9,4,0.73
383201,1,1,2011,2,2.7,-0.6,-1.56,25.6,0,0,0,1010.41,63,2.1,24.7,90,2,2,11.4,2,5.7
383201,1,1,2012,2,0.5,-0.2,-0.71,26.2,0,0,0,1009.92,58,1.9,25.5,45,2,0,2.1,2,1.05
383201,1,1,2013,2,-0.2,0.6,-0.17,25.9,0,0,0,1011.48,58,1.9,27.1,360,0,1,0,0,0
387401,2,2,1989,2,1.2,1,-1.32,25.4,0,0,-0.03,1011.91,68,0.7,25.1,90,2,1,0,0,0
387401,2,2,1990,2,-1.8,0.7,0.52,26.5,0,0,-0.2,1012.28,65,0.9,26,90,1,1,40.6,4,10.15
387401,2,2,1991,2,0.3,-0.3,0.32,26.4,0,0,0.67,1012.4,64,1.2,25.3,45,0,0,0,0,0
387401,2,2,1992,2,-0.9,0.7,1.87,27.6,0,0,-1.1,1011.69,65,1.2,25.9,225,1,1,13.2,3,4.4
387401,2,2,1993,2,-0.7,0.2,1,26.6,0,0,-0.52,1013.2,66,0.8,24.7,45,1,0,7.9,2,3.95
387401,2,2,1994,2,0.3,0.3,0.19,26.1,0,0,0.29,1009.47,59,0.6,27.8,180,0,0,35.3,3,11.77
387401,2,2,1995,2,-0.1,-0.9,0.97,26.8,0,0,0.28,1012.93,61,1.2,25.2,45,1,2,23,3,7.67
387401,2,2,1996,2,0.3,-0.8,-0.59,25.7,0,0,-0.35,1013.78,73,1.5,23.5,45,2,2,2.5,3,0.83
387401,2,2,1997,2,1.7,-0.1,-0.6,25.9,0,0,-0.44,1011.25,67,1.9,25.1,90,2,0,25.1,3,8.37
387401,2,2,1998,2,-2,-0.4,2.77,28.8,0,0,1.13,1011.91,62,2.2,27.6,270,1,0,28.3,5,5.66
387401,2,2,1999,2,1,-0.2,-1.25,25.5,0,0,-0.56,1013.32,71,3.1,25.9,45,2,0,0,0,0
387401,2,2,2000,2,1.7,0.6,-1.25,25.3,0,0,-0.12,1011.46,68,2.5,24.3,45,2,1,25.9,4,6.48
387401,2,2,2001,2,1.7,-1.2,-0.73,26,0,0,-0.33,1010.26,69,2.3,26.3,45,2,2,0,0,0
387401,2,2,2002,2,1.1,1.5,-0.21,26.3,0,0,-0.14,1013.55,75,2.1,26.1,90,0,1,7,1,7
387401,2,2,2003,2,-0.7,2.4,0.93,26.8,0,0,0.04,1012.21,79,2.2,26.3,45,1,1,20.3,6,3.38
387401,2,2,2004,2,1.2,-0.5,0.33,26.5,0,0,0.62,1012.63,62,2.6,24.1,45,0,0,58.7,6,9.78
387401,2,2,2005,2,-3.1,-0.6,0.8,26.1,0,0,-0.86,1010.81,66,2.8,28.5,225,1,2,0,0,0
387401,2,2,2006,2,0.1,-1.4,-0.46,26,0,0,-1.04,1012.43,62,3.8,26.3,45,0,2,31.7,6,5.28
387401,2,2,2007,2,-0.1,-0.4,0.51,26.4,0,0,0.07,1011.48,66,2.7,26.5,135,1,0,8.1,2,4.05
387401,2,2,2008,2,2.6,-0.6,-1.41,25,0,0,-0.63,1013.83,69,4.7,22.6,45,2,2,8.4,3,2.8
387401,2,2,2009,2,1.9,-0.2,-0.73,25.8,0,0,0.13,1009.46,70,2.1,27.4,45,2,0,1.6,2,0.8
387401,2,2,2010,2,-1.5,-1,1.52,27.2,0,0,1.25,1010.34,68,1.6,28.1,225,1,2,2.2,2,1.1
387401,2,2,2011,2,2.7,-0.6,-1.56,25.6,0,0,0,1010.03,72,1.6,25.8,45,2,2,63.1,5,12.62
387401,2,2,2012,2,0.5,-0.2,-0.71,26.2,0,0,0,1009.74,63,1.6,26.4,45,2,0,0.1,1,0.1
387401,2,2,2013,2,-0.2,-0.9,-0.17,25.9,0,0,0,1011.17,63,2.7,27.7,45,0,2,0,0,0
388401,2,2,1998,2,-2,0.5,2.77,28.8,0,0,1.13,1009.42509053051,58,2.8,27.2,90,1,0,12.9,6,2.15
388401,2,2,1999,2,1,-0.2,-1.25,25.5,0,0,-0.56,1013,66,6.2,25.7,90,2,0,0,0,0
388401,2,2,2000,2,1.7,0.6,-1.25,25.3,0,0,-0.12,1010.8,65,4.3,24.1,90,2,1,13.2,5,2.64
388401,2,2,2001,2,1.7,-1.2,-0.73,26,0,0,-0.33,1009.78,69,4.9,25.7,90,2,2,0,0,0
388401,2,2,2002,2,1.1,2.2,-0.21,26.3,0,0,-0.14,1012.98,68,4.2,25.5,90,0,1,0.5,2,0.25
388401,2,2,2003,2,-0.7,0.2,0.93,26.8,0,0,0.04,1011.61,75,3.4,26.3,90,1,0,9.5,3,3.17
388401,2,2,2004,2,1.2,-1,0.33,26.5,0,0,0.62,1012,72.7179059978955,4.2,23.4,90,0,2,91.1,5,18.22
388401,2,2,2005,2,-3.1,-1.1,0.8,26.1,0,0,-0.86,1009.42509053051,61,2.38601945277701,26.7129417080884,0,1,2,0,0,0
388401,2,2,2006,2,0.1,-1.4,-0.46,26,0,0,-1.04,1011.72,59,4.5,27.6,90,0,2,15.4,4,3.85
388401,2,2,2007,2,-0.1,-0.6,0.51,26.4,0,0,0.07,1010.95,61,3.2,27.8,0,1,2,6.6,3,2.2
388401,2,2,2008,2,2.6,-0.6,-1.41,25,0,0,-0.63,1013.36,63,5.5,23.5,90,2,2,1.7,5,0.34
388401,2,2,2009,2,1.9,-0.2,-0.73,25.8,0,0,0.13,1009.12,70,3.5,28.4,180,2,0,0,0,0
388401,2,2,2010,2,-1.5,-0.1,1.52,27.2,0,0,1.25,1010.98,64,3.4,28.4,180,1,0,36.6,6,6.1
388401,2,2,2011,2,2.7,-0.6,-1.56,25.6,0,0,0,1010.24,69,4.2,26.5,0,2,2,5.7,5,1.14
388401,2,2,2012,2,0.5,-0.2,-0.71,26.2,0,0,0,1009.73,56,4.7,26.7,90,2,0,14.2,3,4.73
388401,2,2,2013,2,-0.2,-1.1,-0.17,25.9,0,0,0,1011.09,56,5.5,28.8,90,0,2,0,0,0
403201,2,2,1957,2,-0.1,-0.6,-0.35,26.1,0,0,0,1010.78,51,3.2,26.9,45,0,2,14,2,7
403201,2,2,1958,2,-0.5,1,1.45,27.2,0,0,0.22,1011.7,56,3.5,26.2,45,1,1,18.4,4,4.6
403201,2,2,1959,2,-1.4,0.9,0.81,26.1,0,0,0.01,1010.97,53,3.5,28.8,270,1,1,29.1,5,5.82
403201,2,2,1960,2,0.1,1,-0.27,25.9,0,0,0,1013.22,46,5.6,26.6,90,0,1,0,0,0
403201,2,2,1961,2,0.9,0.6,-0.27,26.3,0,0,-0.28,1010.01,55,4.6,27.8,90,0,1,50.8,3,16.93
403201,2,2,1962,2,-0.3,-0.1,-0.99,26.2,0,0,1.78,1013.74,45,5.6,26.2,90,2,0,0,0,0
403201,2,2,1963,2,0.6,-0.1,-0.82,25.8,0,0,0.82,1014.09,49,4.3,25.7,90,2,0,0.2,1,0.2
403201,2,2,1964,2,0,-0.3,0.44,26.3,0,0,-1.18,1013.21,51,4.1,26.6,90,0,0,10.7,1,10.7
403201,2,2,1965,2,0.4,0.1,-0.32,26,0,0,-0.72,1010.55,57,2.6,27.9,90,0,0,19.5,4,4.88
403201,2,2,1966,2,-0.2,-1,1.18,26.8,0,0,-0.51,1010.98,51,3.8,28.9,90,1,2,3.4,2,1.7
403201,2,2,1967,2,1.7,-0.2,-0.94,26.2,0,0,0.31,1012.68,54,3.7,25.5,90,2,0,37.7,3,12.57
403201,2,2,1968,2,1.3,-1.1,-0.68,24.9,0,0,1.26,1012.84,54,4,25.9,90,2,2,21.9,2,10.95
403201,2,2,1969,2,-0.5,-0.4,0.87,26.6,0,0,-0.04,1010.96,48,4.2,28.5,270,1,0,0,0,0
403201,2,2,1970,2,-1,-0.5,0.41,26.5,0,0,0.69,1012.65,54,3.2,26.7,45,0,0,2.5,2,1.25
403201,2,2,1971,2,2,-0.6,-1.52,24.7,0,0,0.19,1010.75,55,2.8,25.2,45,2,2,11.7,5,2.34
403201,2,2,1972,2,1.1,0.3,-0.42,26.1,0,0,0.1,1009.05,55,2.9,26.9,90,0,0,8.2,2,4.1
403201,2,2,1973,2,-1.4,1.4,1.47,27.2,0,0,0.27,1011.88,50,2.7,28.4,90,1,1,2.9,2,1.45
403201,2,2,1974,2,2.1,0.3,-1.79,25,0,0,0.8,1011.55,54,3.8,24.7,45,2,0,20.3,1,20.3
403201,2,2,1975,2,0.8,0.8,-0.61,25.6,0,0,-0.59,1011.25,59,3.2,27.3,90,2,1,95.9,5,19.18
403201,2,2,1976,2,1.7,0.2,-1.4,25.1,0,0,0.58,1010.14,63,2.5,25.5,270,2,0,10.8,3,3.6
403201,2,2,1977,2,1.2,0.5,0.26,26.8,0,0,0.48,1014.02,54,4.6,23.4,90,0,0,0,0,0
403201,2,2,1978,2,-2.7,-1.2,0.9,26.4,0,0,-1.02,1013.65,50,2.6,26.1,90,1,2,0,0,0
403201,2,2,1979,2,1,1.5,0.35,26.4,0,0,0.29,1010.38,66,3,26.7,90,0,1,55.7,3,18.57
403201,2,2,1980,2,0.3,0.6,0.61,26.5,0,0,-0.15,1011.7,58,3.7,26,90,1,1,6.4,2,3.2
403201,2,2,1983,2,-3.6,-0.3,2.9,28.6,0,0,-1.42,1011.31,60,2.38601945277701,27.2,270,1,0,0,0,0
403201,2,2,1984,2,0.9,0.4,-0.56,26.6,0,0,0.04,1010.36,58,2.9,26.7,90,2,0,39.7,2,19.85
403201,2,2,1985,2,1.2,0.3,-0.61,25.8,0,0,-1.23,1006.86,57,2.4,27.6,225,2,0,7.9,2,3.95
403201,2,2,1986,2,-1,0.9,-0.18,26,0,0,-0.45,1011.19,57,2.6,26.5,45,0,1,0,0,0
403201,2,2,1987,2,-1.2,0.4,1.18,27.3,0,0,0.06,1013.52,72,2.4,26.9,45,1,0,31.2,3,10.4
403201,2,2,1988,2,-0.4,0.7,0.66,26.2,0,0,0.58,1011.23,61,1.1,26.9,45,1,1,67.1,3,22.37
403201,2,2,1989,2,1.2,1,-1.32,25.4,0,0,-0.03,1011.51,62,1.6,26,45,2,1,0,0,0
403201,2,2,1990,2,-1.8,-0.7,0.52,26.5,0,0,-0.2,1012.39,55,1.5,26.6,45,1,2,35.2,1,35.2
403201,2,2,1991,2,0.3,-0.7,0.32,26.4,0,0,0.67,1012.47,62,1.8,26.2,45,0,2,0,0,0
403201,2,2,1992,2,-0.9,0.3,1.87,27.6,0,0,-1.1,1011.76,55,1.9,25.9,225,1,0,2,2,1
403201,2,2,1993,2,-0.7,0.8,1,26.6,0,0,-0.52,1012.95,57,1.6,25.8,45,1,1,0.3,1,0.3
403201,2,2,1994,2,0.3,1.2,0.19,26.1,0,0,0.29,1009.3,55,1.2,28.3,225,0,1,29,4,7.25
403201,2,2,1995,2,-0.1,0.2,0.97,26.8,0,0,0.28,1012.42,56,1.9,25.8,45,1,0,6.5,3,2.17
403201,2,2,1996,2,0.3,-0.8,-0.59,25.7,0,0,-0.35,1013.09,61,2.2,24.6,45,2,2,13.1,1,13.1
403201,2,2,1997,2,1.7,-0.6,-0.6,25.9,0,0,-0.44,1010.84,62,1.6,26,45,2,2,0,0,0
403201,2,2,1998,2,-2,0.4,2.77,28.8,0,0,1.13,1011.92,57,1.4,28.2,225,1,0,23.5,6,3.92
403201,2,2,1999,2,1,-0.2,-1.25,25.5,0,0,-0.56,1013.17,61,1.8,26.7,45,2,0,0,0,0
403201,2,2,2000,2,1.7,0.6,-1.25,25.3,0,0,-0.12,1011.29,58,1.2,25.4,45,2,1,25.8,3,8.6
403201,2,2,2001,2,1.7,-1.2,-0.73,26,0,0,-0.33,1010.21,62,1,27.1,45,2,2,0,0,0
403201,2,2,2002,2,1.1,-1.5,-0.21,26.3,0,0,-0.14,1013.51,62,0.6,27,90,0,2,8,2,4
403201,2,2,2003,2,-0.7,-0.4,0.93,26.8,0,0,0.04,1012.42,68,0.6,26.8,45,1,0,7.6,4,1.9
403201,2,2,2004,2,1.2,0.3,0.33,26.5,0,0,0.62,1012.53,55,1.3,25,90,0,0,11.1,4,2.78
403201,2,2,2005,2,-3.1,0.4,0.8,26.1,0,0,-0.86,1011.16,61,0.9,29.1,270,1,0,0,0,0
403201,2,2,2006,2,0.1,-1.4,-0.46,26,0,0,-1.04,1012.68,54,1,27.1,45,0,2,9.6,4,2.4
403201,2,2,2007,2,-0.1,-0.3,0.51,26.4,0,0,0.07,1011.94,59,0.9,27.2,270,1,0,16.6,4,4.15
403201,2,2,2008,2,2.6,-0.6,-1.41,25,0,0,-0.63,1013.84,60,1.5,24.1,45,2,2,8.3,3,2.77
403201,2,2,2009,2,1.9,-0.2,-0.73,25.8,0,0,0.13,1009.98,61,1.7,28.1,270,2,0,3.5,2,1.75
403201,2,2,2010,2,-1.5,0.2,1.52,27.2,0,0,1.25,1010.87,60,2.3,28.6,270,1,0,14.5,3,4.83
403201,2,2,2011,2,2.7,-0.6,-1.56,25.6,0,0,0,1010.04,58,2.1,26.7,90,2,2,4.8,2,2.4
403201,2,2,2012,2,0.5,-0.2,-0.71,26.2,0,0,0,1009.3,59,2.1,27.7,90,2,0,0,0,0
403201,2,2,2013,2,-0.2,-0.8,-0.17,25.9,0,0,0,1010.99,59,1.6,28,90,0,2,1.6,1,1.6
405201,2,2,1953,2,-0.5,-0.1,0.38,26.6,0,0,0,1013.94,67,4,26.5,45,0,0,36.4,6,6.07
405201,2,2,1954,2,-0.3,0.5,-0.02,26.2,0,0,0,1011.71,59,3.6,27.6,45,0,0,3.5,1,3.5
405201,2,2,1955,2,1.9,-0.3,-0.71,25.7,0,0,0,1009.18,62,3.1,26.9,180,2,0,0,0,0
405201,2,2,1956,2,1.6,2.3,-1.3,25.8,0,0,0,1009.67,68,2.6,26.7,135,2,1,56.1,4,14.03
405201,2,2,1957,2,-0.1,0,-0.35,26.1,0,0,0,1012.08,60,3.5,25.7,180,0,0,5.3,2,2.65
405201,2,2,1958,2,-0.5,0,1.45,27.2,0,0,0.22,1013.14,67,3.7,24.9,90,1,0,4.4,4,1.1
405201,2,2,1959,2,-1.4,-0.4,0.81,26.1,0,0,0.01,1011.34,66,3.4,27,225,1,0,23.1,8,2.89
405201,2,2,1960,2,0.1,0.8,-0.27,25.9,0,0,0,1013.74,58,4.2,25.3,90,0,1,3.5,1,3.5
405201,2,2,1961,2,0.9,-0.7,-0.27,26.3,0,0,-0.28,1010.5,63,2.8,26.8,90,0,2,10.2,1,10.2
405201,2,2,1962,2,-0.3,-1.7,-0.99,26.2,0,0,1.78,1014.43,58,3.2,24.9,90,2,2,0,0,0
405201,2,2,1963,2,0.6,-0.5,-0.82,25.8,0,0,0.82,1014.44,58,3.3,24.5,90,2,0,0,0,0
405201,2,2,1964,2,0,0.5,0.44,26.3,0,0,-1.18,1013.16,59,3.5,25.8,90,0,0,8.5,2,4.25
405201,2,2,1965,2,0.4,0.7,-0.32,26,0,0,-0.72,1004.91,65,1.9,27.1,90,0,1,9.1,3,3.03
405201,2,2,1966,2,-0.2,1.5,1.18,26.8,0,0,-0.51,1010.73,66,1.9,27,90,1,1,55.1,7,7.87
405201,2,2,1967,2,1.7,0.9,-0.94,26.2,0,0,0.31,1012.15,60,2.7,24.7,90,2,1,6,1,6
405201,2,2,1968,2,1.3,-1.1,-0.68,24.9,0,0,1.26,1012.97,61,2.6,24.2,90,2,2,10.9,2,5.45
405201,2,2,1969,2,-0.5,-0.8,0.87,26.6,0,0,-0.04,1010.72,56,3.4,26.8,90,1,2,0,0,0
405201,2,2,1970,2,-1,0.2,0.41,26.5,0,0,0.69,1011.98,55,3.1,26.6,90,0,0,0,0,0
405201,2,2,1971,2,2,-0.6,-1.52,24.7,0,0,0.19,1010.75,58,2.9,24.6,90,2,2,33.2,3,11.07
405201,2,2,1972,2,1.1,0,-0.42,26.1,0,0,0.1,1009.16,68,2.5,24.9,90,0,0,71.5,5,14.3
405201,2,2,1973,2,-1.4,-0.5,1.47,27.2,0,0,0.27,1011.73,59,2.4,27.2,90,1,0,0.4,1,0.4
405201,2,2,1974,2,2.1,0.3,-1.79,25,0,0,0.8,1011.81,62,3.5,23.1,90,2,0,1,1,1
405201,2,2,1975,2,0.8,0.8,-0.61,25.6,0,0,-0.59,1011.52,70,2,25.2,90,2,1,99.7,3,33.23
405201,2,2,1976,2,1.7,0.2,-1.4,25.1,0,0,0.58,1010.27,68,2,25.2,180,2,0,4.5,4,1.13
405201,2,2,1977,2,1.2,-0.2,0.26,26.8,0,0,0.48,1014.64,60,3.8,22,90,0,0,0,0,0
405201,2,2,1978,2,-2.7,0.9,0.9,26.4,0,0,-1.02,1014.14,64,3,25.2,45,1,1,5.8,2,2.9
405201,2,2,1979,2,1,-0.2,0.35,26.4,0,0,0.29,1010.41,61,3.2,26.3,90,0,0,0,0,0
405201,2,2,1980,2,0.3,-0.2,0.61,26.5,0,0,-0.15,1011.95,60,3,25.1,90,1,0,7.5,3,2.5
405201,2,2,1981,2,-0.2,0.2,-0.15,25.4,0,0,0.15,1010.57,67,2.38601945277701,26.2,90,0,0,66.5,2,33.25
405201,2,2,1982,2,0.3,-0.6,-0.14,26.5,0,0,0.98,1010.49,65,2.38601945277701,25.5,90,0,2,31.9,3,10.63
405201,2,2,1983,2,-3.6,1.1,2.9,28.6,0,0,-1.42,1010.92,62,2.38601945277701,26.6,180,1,1,13.8,1,13.8
405201,2,2,1984,2,0.9,-0.8,-0.56,26.6,0,0,0.04,1010.2,66,2.3,25.7,90,2,2,0,0,0
405201,2,2,1985,2,1.2,0.3,-0.61,25.8,0,0,-1.23,1006.5,63,2.1,26.6,180,2,0,67.6,6,11.27
405201,2,2,1986,2,-1,1.7,-0.18,26,0,0,-0.45,1011.14,62,2.4,25.4,45,0,1,0,0,0
405201,2,2,1987,2,-1.2,-1.9,1.18,27.3,0,0,0.06,1013.47,65,2.7,25.9,45,1,2,120.086185066343,0,120.09
405201,2,2,1988,2,-0.4,-0.2,0.66,26.2,0,0,0.58,1011.08,59,2.5,26.5,135,1,0,35.9,2,17.95
405201,2,2,1989,2,1.2,1,-1.32,25.4,0,0,-0.03,1011.56,66,2.7,24.6,45,2,1,0,0,0
405201,2,2,1990,2,-1.8,-0.3,0.52,26.5,0,0,-0.2,1012.27,59,2.8,25.6,135,1,0,91.5,7,13.07
405201,2,2,1991,2,0.3,-0.6,0.32,26.4,0,0,0.67,1012.31,66,3,25.3,45,0,2,2.5,1,2.5
405201,2,2,1992,2,-0.9,0.4,1.87,27.6,0,0,-1.1,1011.58,59,2.7,25.3,225,1,0,4.2,4,1.05
405201,2,2,1993,2,-0.7,0.8,1,26.6,0,0,-0.52,1012.96,62,1.7,24.6,360,1,1,0,0,0
405201,2,2,1994,2,0.3,0.5,0.19,26.1,0,0,0.29,1009.12,58,1.5,27.3,135,0,0,16.3,4,4.08
405201,2,2,1995,2,-0.1,1.2,0.97,26.8,0,0,0.28,1012.34,57,1.4,24.8,45,1,1,17.2,3,5.73
405201,2,2,1996,2,0.3,-0.8,-0.59,25.7,0,0,-0.35,1013.13,66,2.1,23.2,45,2,2,0,0,0
405201,2,2,1997,2,1.7,-1.1,-0.6,25.9,0,0,-0.44,1010.96,63,0.9,24.9,45,2,2,21.3,5,4.26
405201,2,2,1998,2,-2,-0.3,2.77,28.8,0,0,1.13,1011.85,59,1.1,27.5,225,1,0,22.3,4,5.58
405201,2,2,1999,2,1,-0.2,-1.25,25.5,0,0,-0.56,1013.25,63,1.9,25.5,45,2,0,0,0,0
405201,2,2,2000,2,1.7,0.6,-1.25,25.3,0,0,-0.12,1011.26,62,1.4,24.3,45,2,1,14.5,5,2.9
405201,2,2,2001,2,1.7,-1.2,-0.73,26,0,0,-0.33,1010.19,65,1,26.1,45,2,2,0,0,0
405201,2,2,2002,2,1.1,0.8,-0.21,26.3,0,0,-0.14,1013.32,64,1,25.8,135,0,1,1.2,2,0.6
405201,2,2,2003,2,-0.7,0.2,0.93,26.8,0,0,0.04,1011.94,69,1.4,26.5,135,1,0,17.5,3,5.83
405201,2,2,2004,2,1.2,-1.2,0.33,26.5,0,0,0.62,1012.44,56,1.7,23.7,45,0,2,80.7,7,11.53
405201,2,2,2005,2,-3.1,-1.9,0.8,26.1,0,0,-0.86,1010.71,63,2,28.2,180,1,2,0,0,0
405201,2,2,2006,2,0.1,-1.4,-0.46,26,0,0,-1.04,1012.19,58,1.8,26.2,45,0,2,23,5,4.6
405201,2,2,2007,2,-0.1,-0.6,0.51,26.4,0,0,0.07,1011.21,68,1.4,26.9,45,1,2,28.2,2,14.1
405201,2,2,2008,2,2.6,-0.6,-1.41,25,0,0,-0.63,1013.62,61,3,22.4,45,2,2,9,2,4.5
405201,2,2,2009,2,1.9,-0.2,-0.73,25.8,0,0,0.13,1009.42,67,2.2,27.4,90,2,0,0,0,0
405201,2,2,2010,2,-1.5,0,1.52,27.2,0,0,1.25,1010.54,65,1.7,27.9,90,1,0,12.1,6,2.02
405201,2,2,2011,2,2.7,-0.6,-1.56,25.6,0,0,0,1010.11,73,2.2,25.7,90,2,2,0.8,4,0.2
405201,2,2,2012,2,0.5,-0.2,-0.71,26.2,0,0,0,1009.5,61,2.4,25.9,45,2,0,17.3,3,5.77
405201,2,2,2013,2,-0.2,2.2,-0.17,25.9,0,0,0,1011.02,61,2.7,27.4,45,0,1,0,0,0
405301,2,3,2006,2,0.1,-0.5,-0.46,26,0,0,-1.04,1012.42,63,3.6,25.8,45,0,0,22.6,6,3.77
405301,2,3,2007,2,-0.1,-0.1,0.51,26.4,0,0,0.07,1011.2,66,2.7,26.4,180,1,0,22.1,3,7.37
405301,2,3,2008,2,2.6,-1.2,-1.41,25,0,0,-0.63,1013.53,63,4,22,45,2,2,10.4,5,2.08
405301,2,3,2009,2,1.9,-0.5,-0.73,25.8,0,0,0.13,1009.33,73,2.7,27.1,90,2,0,0,0,0
405301,2,3,2010,2,-1.5,1,1.52,27.2,0,0,1.25,1010.71,67,2.7,27.5,90,1,1,7.5,5,1.5
405301,2,3,2011,2,2.7,-0.9,-1.56,25.6,0,0,0,1010.23,74,2.5,25.3,45,2,2,1.6,2,0.8
405301,2,3,2012,2,0.5,-0.5,-0.71,26.2,0,0,0,1009.49,62,2.5,25.5,90,2,0,30.9,2,15.45
405301,2,3,2013,2,-0.2,-0.4,-0.17,25.9,0,0,0,1011.03,62,3.9,27,90,0,0,0,0,0
407301,3,1,2006,2,0.1,0.1,-0.46,26,0,0,-1.04,1012.31,62,1.5,26.6,360,0,0,14,2,7
407301,3,1,2007,2,-0.1,0.3,0.51,26.4,0,0,0.07,1011.85,65,1,26.4,180,1,0,0.2,2,0.1
407301,3,1,2008,2,2.6,-0.3,-1.41,25,0,0,-0.63,1013.42,66,2.5,22.6,360,2,0,1.7,2,0.85
407301,3,1,2009,2,1.9,-0.2,-0.73,25.8,0,0,0.13,1009.8,70,1.3,27,180,2,0,1.7,3,0.57
407301,3,1,2010,2,-1.5,-0.9,1.52,27.2,0,0,1.25,1010.99,67,1.3,27.7,180,1,2,16,2,8
407301,3,1,2011,2,2.7,-0.2,-1.56,25.6,0,0,0,1010.21,65,1.5,25.6,360,2,0,25.2,2,12.6
407301,3,1,2012,2,0.5,0.6,-0.71,26.2,0,0,0,1009.48,61,1.4,26.8,360,2,1,0,1,0
407301,3,1,2013,2,-0.2,-0.6,-0.17,25.9,0,0,0,1011.36,61,1.6,27.7,45,0,2,0,0,0
407501,3,1,1953,2,-0.5,-0.1,0.38,26.6,0,0,0,1010.53,72,2.8,26.6,45,0,0,13.8,0,13.8
407501,3,1,1954,2,-0.3,0.5,-0.02,26.2,0,0,0,1011.56,70,5.5,27.1,45,0,0,0,1,0
407501,3,1,1955,2,1.9,-0.3,-0.71,25.7,0,0,0,1011.09,62,4.1,26.2,45,2,0,50.3,0,16.77
407501,3,1,1956,2,1.6,2.3,-1.3,25.8,0,0,0,1010.37,65,6.8,25.4,45,2,1,9,3,9
407501,3,1,1957,2,-0.1,-0.3,-0.35,26.1,0,0,0,1012.63,64,8.4,25.5,45,0,0,3.5,1,3.5
407501,3,1,1958,2,-0.5,0,1.45,27.2,0,0,0.22,1012.24,72,1.8,26.4,45,1,0,3.1,1,3.1
407501,3,1,1959,2,-1.4,-0.4,0.81,26.1,0,0,0.01,1012.67,67,6.1,25,45,1,0,0.1,1,0.1
407501,3,1,1960,2,0.1,0.8,-0.27,25.9,0,0,0,1009.42509053051,72.7179059978955,2.38601945277701,26.7129417080884,0,0,1,0.1,1,0.1
407501,3,1,1961,2,0.9,-0.7,-0.27,26.3,0,0,-0.28,1010.8,76,2.4,25.8,45,0,2,45.8,1,22.9
407501,3,1,1962,2,-0.3,-1.7,-0.99,26.2,0,0,1.78,1011.55,73,3.8,25.6,45,2,2,0,2,0
407501,3,1,1963,2,0.6,-0.5,-0.82,25.8,0,0,0.82,1011.54,72,5.5,24.9,45,2,0,0,0,0
407501,3,1,1964,2,0,0.5,0.44,26.3,0,0,-1.18,1013.09,78,3,26.3,45,0,0,5.1,0,1.7
407501,3,1,1965,2,0.4,0.7,-0.32,26,0,0,-0.72,1012.14,72,9.8,23.1,45,0,1,0,3,0
407501,3,1,1966,2,-0.2,1.5,1.18,26.8,0,0,-0.51,1012.97,73,4.7,25.7,45,1,1,0,0,0
407501,3,1,1967,2,1.7,0.9,-0.94,26.2,0,0,0.31,1011.73,71,5.7,25.5,45,2,1,0.2,0,0.2
407501,3,1,1968,2,1.3,-1.1,-0.68,24.9,0,0,1.26,1012.03,70,4.1,25.4,45,2,2,5.3,1,2.65
407501,3,1,1969,2,-0.5,-0.8,0.87,26.6,0,0,-0.04,1013.16,67,4.1,26.5,45,1,2,0.7,2,0.7
407501,3,1,1970,2,-1,0.2,0.41,26.5,0,0,0.69,1013.14,71,6.5,24.2,45,0,0,13.1,1,6.55
407501,3,1,1971,2,2,-0.6,-1.52,24.7,0,0,0.19,1011.91,71,6.1,24.2,45,2,2,57.9,2,11.58
407501,3,1,1972,2,1.1,0,-0.42,26.1,0,0,0.1,1013.92,67,7.9,23.2,45,0,0,21.9,5,10.95
407501,3,1,1973,2,-1.4,-0.5,1.47,27.2,0,0,0.27,1011.95,74,5,26.4,360,1,0,2.4,2,2.4
407501,3,1,1974,2,2.1,0.3,-1.79,25,0,0,0.8,1012.4,72,8.1,23.9,45,2,0,16.6,1,16.6
407501,3,1,1975,2,0.8,0.8,-0.61,25.6,0,0,-0.59,1011.27,74,7.7,24.4,45,2,1,0.2,1,0.2
407501,3,1,1976,2,1.7,0.2,-1.4,25.1,0,0,0.58,1012.9,74,5.6,23.8,360,2,0,0,1,0
407501,3,1,1977,2,1.2,-0.2,0.26,26.8,0,0,0.48,1009.42509053051,72,6.5,23.5,360,0,0,0.4,0,0.4
407501,3,1,1978,2,-2.7,0.9,0.9,26.4,0,0,-1.02,1014.09,68,7.6,24.5,360,1,1,2,1,2
407501,3,1,1979,2,1,-0.2,0.35,26.4,0,0,0.29,1013.31,71,4.9,24.5,45,0,0,2.5,1,1.25
407501,3,1,1980,2,0.3,-0.2,0.61,26.5,0,0,-0.15,1013.4,65,7.7,24.2,360,1,0,23.5,2,11.75
407501,3,1,1981,2,-0.2,0.2,-0.15,25.4,0,0,0.15,1012.28,74,5.1,24.9,360,0,0,0,2,0
407501,3,1,1982,2,0.3,-0.6,-0.14,26.5,0,0,0.98,1011.55,77,5,25.4,360,0,2,0,0,0
407501,3,1,1983,2,-3.6,1.1,2.9,28.6,0,0,-1.42,1012.02,67,2.9,26.3,360,1,1,0,0,0
407501,3,1,1984,2,0.9,-0.8,-0.56,26.6,0,0,0.04,1014.59,72,6.8,24,360,2,2,114,0,38
407501,3,1,1985,2,1.2,0.3,-0.61,25.8,0,0,-1.23,1012.28,75,6.4,24.8,45,2,0,0,3,0
407501,3,1,1986,2,-1,1.7,-0.18,26,0,0,-0.45,1011.24,71,4.6,26.3,360,0,1,0,0,0
407501,3,1,1987,2,-1.2,-1.9,1.18,27.3,0,0,0.06,1012.58,75,6.6,24.3,360,1,2,0,0,0
407501,3,1,1988,2,-0.4,-0.2,0.66,26.2,0,0,0.58,1010.76,71,4.7,26.3,360,1,0,0,0,0
407501,3,1,1989,2,1.2,1,-1.32,25.4,0,0,-0.03,1013.42,69,7.1,23.7,360,2,1,29.2,0,14.6
407501,3,1,1990,2,-1.8,-0.3,0.52,26.5,0,0,-0.2,1013.45,73,6.3,25.3,360,1,0,0,2,0
407501,3,1,1991,2,0.3,-0.6,0.32,26.4,0,0,0.67,1011.72,68,4.7,25.3,360,0,2,16.7,0,4.18
407501,3,1,1992,2,-0.9,0.4,1.87,27.6,0,0,-1.1,1013.92,71,5,24.9,360,1,0,0,4,0
407501,3,1,1993,2,-0.7,0.8,1,26.6,0,0,-0.52,1014.46,71,7.3,23.8,45,1,1,99,0,49.5
407501,3,1,1994,2,0.3,0.5,0.19,26.1,0,0,0.29,1011.84,67,5.6,25.6,45,0,0,1.2,2,0.4
407501,3,1,1995,2,-0.1,1.2,0.97,26.8,0,0,0.28,1013.62,70,6.1,25.9,360,1,1,0.7,3,0.7
407501,3,1,1996,2,0.3,-0.8,-0.59,25.7,0,0,-0.35,1011.85,79,6.4,24.5,360,2,2,7.1,1,7.1
407501,3,1,1997,2,1.7,-1.1,-0.6,25.9,0,0,-0.44,1010.08,72,5.7,25.5,360,2,2,58.4,1,11.68
407501,3,1,1998,2,-2,-0.3,2.77,28.8,0,0,1.13,1012.77,74,3.4,26.9,360,1,0,23.1,5,23.1
407501,3,1,1999,2,1,-0.2,-1.25,25.5,0,0,-0.56,1010.14,75,5.7,25.4,360,2,0,4.2,1,4.2
407501,3,1,2000,2,1.7,0.6,-1.25,25.3,0,0,-0.12,1010.96,67,5.6,25.5,360,2,1,15.4,1,15.4
407501,3,1,2001,2,1.7,-1.2,-0.73,26,0,0,-0.33,1011.31,71,5.8,25,360,2,2,0,1,0
407501,3,1,2002,2,1.1,0.8,-0.21,26.3,0,0,-0.14,1012.97,70,5.5,24,360,0,1,23.8,0,7.93
407501,3,1,2003,2,-0.7,0.2,0.93,26.8,0,0,0.04,1012.13,67,5,26.4,360,1,0,18.8,3,4.7
407501,3,1,2004,2,1.2,-1.2,0.33,26.5,0,0,0.62,1011.83,66,4.4,26.5,360,0,2,0,4,0
407501,3,1,2005,2,-3.1,-1.9,0.8,26.1,0,0,-0.86,1012.61,73,5,26.7,360,1,2,6.8,0,3.4
407501,3,1,2006,2,0.1,-1.4,-0.46,26,0,0,-1.04,1011.24,71,4.1,26.3,360,0,2,2.7,2,0.9
407501,3,1,2007,2,-0.1,-0.6,0.51,26.4,0,0,0.07,1010.94,70,3.4,27.5,360,1,2,1.1,3,0.55
407501,3,1,2008,2,2.6,-0.6,-1.41,25,0,0,-0.63,1012.12,73,6.6,23.9,45,2,2,3.5,2,1.75
407501,3,1,2009,2,1.9,-0.2,-0.73,25.8,0,0,0.13,1011.74,70,5.7,25.2,45,2,0,12.1,2,12.1
407501,3,1,2010,2,-1.5,0,1.52,27.2,0,0,1.25,1011.74,69,4.8,25.7,45,1,0,1.1,1,1.1
407501,3,1,2011,2,2.7,-0.6,-1.56,25.6,0,0,0,1011.09,68,5.5,25.3,360,2,2,0.1,1,0.05
407501,3,1,2012,2,0.5,-0.2,-0.71,26.2,0,0,0,1010.48,71,4,26.2,45,2,0,0,2,0
407501,3,1,2013,2,-0.2,2.2,-0.17,25.9,0,0,0,1010.05,72,2.7,28.1,45,0,1,135.7,0,135.7
409301,3,1,2006,2,0.1,-1.4,-0.46,26,0,0,-1.04,1009.42509053051,75,2.38601945277701,26.7129417080884, ,0,2,4.6,2,2.3
409301,3,1,2007,2,-0.1,0.3,0.51,26.4,0,0,0.07,1011.19,71,0.4,26.8,45,1,0,0.5,4,0.125
409301,3,1,2008,2,2.6,-0.6,-1.41,25,0,0,-0.63,1012.58,75,1.4,23.6,45,2,2,0.9,2,0.45
409301,3,1,2009,2,1.9,-0.2,-0.73,25.8,0,0,0.13,1012.05,73,1.9,24.9,45,2,0,9.8,1,9.8
409301,3,1,2010,2,-1.5,0.2,1.52,27.2,0,0,1.25,1011.81,70,2,25.4,360,1,0,12.4,2,6.2
409301,3,1,2011,2,2.7,-0.6,-1.56,25.6,0,0,0,1011.39,71,4,25.5,45,2,2,0,0,0
409301,3,1,2012,2,0.5,-0.2,-0.71,26.2,0,0,0,1010.64,76,3.4,26.4,360,2,0,0,0,0
409301,3,1,2013,2,-0.2,-0.8,-0.17,25.9,0,0,0,1010.04,74,0.6,27.6,45,0,2,0,0,0
431201,3,1,1953,2,-0.5,-0.1,0.38,26.6,0,0,0,1013.75,75,2.9,25,45,0,0,107.3,9,11.92
431201,3,1,1954,2,-0.3,0.5,-0.02,26.2,0,0,0,1011.74,69,2.9,25.1,45,0,0,82.5,2,41.25
431201,3,1,1955,2,1.9,-0.3,-0.71,25.7,0,0,0,1010.12,65,2.5,26.2,90,2,0,18.8,1,18.8
431201,3,1,1956,2,1.6,2.3,-1.3,25.8,0,0,0,1009.88,69,1.6,26.4,270,2,1,18.2,4,4.55
431201,3,1,1957,2,-0.1,0,-0.35,26.1,0,0,0,1012.16,65,2.4,25.4,45,0,0,43.2,6,7.2
431201,3,1,1958,2,-0.5,0,1.45,27.2,0,0,0.22,1013.03,65,2.4,25,45,1,0,16.9,4,4.23
431201,3,1,1959,2,-1.4,-0.4,0.81,26.1,0,0,0.01,1011.48,67,2.2,26.9,45,1,0,27.1,5,5.42
431201,3,1,1960,2,0.1,0.8,-0.27,25.9,0,0,0,1013.16,62,3,24.3,45,0,1,0.1,1,0.1
431201,3,1,1961,2,0.9,-0.7,-0.27,26.3,0,0,-0.28,1009.97,66,2.7,26.7,360,0,2,9.9,3,3.3
431201,3,1,1962,2,-0.3,-1.7,-0.99,26.2,0,0,1.78,1013.68,58,3.4,24.6,45,2,2,0,0,0
431201,3,1,1963,2,0.6,-0.5,-0.82,25.8,0,0,0.82,1013.88,62,2.3,23.9,45,2,0,0,0,0
431201,3,1,1964,2,0,0.5,0.44,26.3,0,0,-1.18,1012.93,64,2,25.1,45,0,0,3.7,1,3.7
431201,3,1,1965,2,0.4,0.7,-0.32,26,0,0,-0.72,1010.94,73,1.6,25.7,90,0,1,94.7,7,13.53
431201,3,1,1966,2,-0.2,1.5,1.18,26.8,0,0,-0.51,1011.57,69,1.2,26.7,45,1,1,56.5,8,7.06
431201,3,1,1967,2,1.7,0.9,-0.94,26.2,0,0,0.31,1013.24,64,1.8,24.3,45,2,1,0.3,1,0.3
431201,3,1,1968,2,1.3,-1.1,-0.68,24.9,0,0,1.26,1013,66,2.1,25.2,45,2,2,45.9,2,22.95
431201,3,1,1969,2,-0.5,-0.8,0.87,26.6,0,0,-0.04,1011.18,61,1.6,27.3,45,1,2,0,0,0
431201,3,1,1970,2,-1,0.2,0.41,26.5,0,0,0.69,1012.59,62,1.3,26,90,0,0,120.086185066343,1,120.09
431201,3,1,1971,2,2,-0.6,-1.52,24.7,0,0,0.19,1011.09,66,1.3,24.6,45,2,2,9.8,3,3.27
431201,3,1,1972,2,1.1,0,-0.42,26.1,0,0,0.1,1009.55,62,2.3,26.8,45,0,0,5.3,3,1.77
431201,3,1,1973,2,-1.4,-0.5,1.47,27.2,0,0,0.27,1012.06,61,1.6,27.2,90,1,0,1.8,1,1.8
431201,3,1,1974,2,2.1,0.3,-1.79,25,0,0,0.8,1011.64,64,1.9,24.2,45,2,0,54.2,3,18.07
431201,3,1,1975,2,0.8,0.8,-0.61,25.6,0,0,-0.59,1011.37,65,0.8,26.7,45,2,1,0.3,2,0.15
431201,3,1,1976,2,1.7,0.2,-1.4,25.1,0,0,0.58,1010.49,65,0.4,26,45,2,0,30.6,7,4.37
431201,3,1,1977,2,1.2,-0.2,0.26,26.8,0,0,0.48,1014.17,60,1.7,23.4,45,0,0,0,0,0
431201,3,1,1978,2,-2.7,0.9,0.9,26.4,0,0,-1.02,1014.19,65,1.3,25.9,45,1,1,45.6,4,11.4
431201,3,1,1979,2,1,-0.2,0.35,26.4,0,0,0.29,1010.6,58,1.4,27.8,45,0,0,6.7,2,3.35
431201,3,1,1980,2,0.3,-0.2,0.61,26.5,0,0,-0.15,1012.24,58,1.7,26.5,45,1,0,6,3,2
431201,3,1,1981,2,-0.2,0.2,-0.15,25.4,0,0,0.15,1011.35,63,1.2,26.9,45,0,0,47.6,1,47.6
431201,3,1,1982,2,0.3,-0.6,-0.14,26.5,0,0,0.98,1011.09,60,1.1,27,45,0,2,38.2,4,9.55
431201,3,1,1983,2,-3.6,1.1,2.9,28.6,0,0,-1.42,1011.79,64,1.3,27.8,225,1,1,20.4,2,10.2
431201,3,1,1984,2,0.9,-0.8,-0.56,26.6,0,0,0.04,1010.62,67,1.5,26.7,45,2,2,11.2,3,3.73
431201,3,1,1985,2,1.2,0.3,-0.61,25.8,0,0,-1.23,1006.82,59,1.8,27.4,180,2,0,63.2,3,21.07
431201,3,1,1986,2,-1,1.7,-0.18,26,0,0,-0.45,1011,59,1.6,26.6,45,0,1,0,0,0
431201,3,1,1987,2,-1.2,-1.9,1.18,27.3,0,0,0.06,1013.31,67,1.5,26.8,45,1,2,0,0,0
431201,3,1,1988,2,-0.4,-0.2,0.66,26.2,0,0,0.58,1010.97,59,1.4,27.1,45,1,0,41.7,5,8.34
431201,3,1,1989,2,1.2,1,-1.32,25.4,0,0,-0.03,1011.11,64,1.6,26.5,45,2,1,0,0,0
431201,3,1,1990,2,-1.8,-0.3,0.52,26.5,0,0,-0.2,1011.65,55,2,27.4,45,1,0,1.2,2,0.6
431201,3,1,1991,2,0.3,-0.6,0.32,26.4,0,0,0.67,1012.29,62,1.9,26.5,45,0,2,0,0,0
431201,3,1,1992,2,-0.9,0.4,1.87,27.6,0,0,-1.1,1011.75,59,1.5,26.6,180,1,0,4.3,2,2.15
431201,3,1,1993,2,-0.7,0.8,1,26.6,0,0,-0.52,1012.95,59,1.2,25.7,45,1,1,18.8,2,9.4
431201,3,1,1994,2,0.3,0.5,0.19,26.1,0,0,0.29,1009.3,57,1.3,28.6,45,0,0,22.7,4,5.68
431201,3,1,1995,2,-0.1,1.2,0.97,26.8,0,0,0.28,1012.29,59,1.5,26.4,45,1,1,3.5,1,3.5
431201,3,1,1996,2,0.3,-0.8,-0.59,25.7,0,0,-0.35,1012.85,60,1.5,24.7,45,2,2,5.8,1,5.8
431201,3,1,1997,2,1.7,-1.1,-0.6,25.9,0,0,-0.44,1010.55,61,1.3,26.7,45,2,2,3.5,1,3.5
431201,3,1,1998,2,-2,-0.3,2.77,28.8,0,0,1.13,1011.73,60,1,28.7,45,1,0,57.3,2,28.65
431201,3,1,1999,2,1,-0.2,-1.25,25.5,0,0,-0.56,1012.75,64,1.7,26.7,45,2,0,0,0,0
431201,3,1,2000,2,1.7,0.6,-1.25,25.3,0,0,-0.12,1011.03,61,1.5,25,45,2,1,41.8,7,5.97
431201,3,1,2001,2,1.7,-1.2,-0.73,26,0,0,-0.33,1009.94,63,1.3,27.4,45,2,2,0.9,1,0.9
431201,3,1,2002,2,1.1,0.8,-0.21,26.3,0,0,-0.14,1013.05,63,1.1,27.4,90,0,1,9.1,2,4.55
431201,3,1,2003,2,-0.7,0.2,0.93,26.8,0,0,0.04,1011.92,67,1.3,27,90,1,0,32.3,6,5.38
431201,3,1,2004,2,1.2,-1.2,0.33,26.5,0,0,0.62,1012.3,61,1.5,25,45,0,2,34.1,4,8.53
431201,3,1,2005,2,-3.1,-1.9,0.8,26.1,0,0,-0.86,1010.72,63,1.1,29.3,90,1,2,5.7,1,5.7
431201,3,1,2006,2,0.1,-1.4,-0.46,26,0,0,-1.04,1012.02,63,1.9,27.3,45,0,2,4.3,6,0.72
431201,3,1,2007,2,-0.1,-0.6,0.51,26.4,0,0,0.07,1011.41,66,1.4,27.4,0,1,2,0,2,0
431201,3,1,2008,2,2.6,-0.6,-1.41,25,0,0,-0.63,1012.99,62,2.5,24.4,45,2,2,1.5,3,0.5
431201,3,1,2009,2,1.9,-0.2,-0.73,25.8,0,0,0.13,1009.26,66,2.3,28.2,90,2,0,8.8,2,4.4
431201,3,1,2010,2,-1.5,0,1.52,27.2,0,0,1.25,1010.35,65,2,28.9,225,1,0,4,2,2
431201,3,1,2011,2,2.7,-0.6,-1.56,25.6,0,0,0,1009.73,64,1.9,26.7,45,2,2,10.2,4,2.55
431201,3,1,2012,2,0.5,-0.2,-0.71,26.2,0,0,0,1009.41,62,2,27.8,90,2,0,0,1,0
431201,3,1,2013,2,-0.2,-1.2,-0.17,25.9,0,0,0,1011.05,62,2.2,28.2,45,0,2,0,1,0
431301,3,1,2006,2,0.1,-1.4,-0.46,26,0,0,-1.04,1011.9,60,5.1,26,90,0,2,22.5,6,3.75
431301,3,1,2007,2,-0.1,0.3,0.51,26.4,0,0,0.07,1011.93,62,3.5,25.3,90,1,0,94.1,2,47.05
431301,3,1,2008,2,2.6,-0.6,-1.41,25,0,0,-0.63,1012.5,63,6.1,24,90,2,2,17.9,5,3.58
431301,3,1,2009,2,1.9,-0.2,-0.73,25.8,0,0,0.13,1010.09,72,4,26.1,90,2,0,47.9,10,4.79
431301,3,1,2010,2,-1.5,-1.7,1.52,27.2,0,0,1.25,1011.32,68,3.9,26.5,270,1,2,3.2,3,1.07
431301,3,1,2011,2,2.7,-0.6,-1.56,25.6,0,0,0,1010.48,70,4.4,25,90,2,2,66,6,11
431301,3,1,2012,2,0.5,-0.2,-0.71,26.2,0,0,0,1009.56,68,4.9,25.8,90,2,0,9.4,6,1.57
431301,3,1,2013,2,-0.2,0.6,-0.17,25.9,0,0,0,1011.16,68,4.5,26,90,0,1,29.5,4,7.38
431401,3,1,1970,2,-1,0.4,0.41,26.5,0,0,0.69,1009.42509053051,59,2.38601945277701,26.7129417080884, ,0,0,10.7,2,5.35
431401,3,1,1971,2,2,-0.6,-1.52,24.7,0,0,0.19,1009.42509053051,89,2.38601945277701,26.7129417080884, ,2,2,16.4,2,8.2
431401,3,1,1972,2,1.1,-0.5,-0.42,26.1,0,0,0.1,1009.42509053051,88,2.38601945277701,26.7129417080884, ,0,0,3.5,3,1.17
431401,3,1,1973,2,-1.4,-0.3,1.47,27.2,0,0,0.27,1009.42509053051,90,2.38601945277701,26.7129417080884, ,1,0,2.4,1,2.4
431401,3,1,1974,2,2.1,0.3,-1.79,25,0,0,0.8,1009.42509053051,87,2.38601945277701,26.7129417080884, ,2,0,32.4,5,6.48
431401,3,1,1975,2,0.8,0.8,-0.61,25.6,0,0,-0.59,1009.42509053051,65,2.38601945277701,26.7129417080884, ,2,1,38.6,3,12.87
431401,3,1,1976,2,1.7,0.2,-1.4,25.1,0,0,0.58,1009.42509053051,63,2.38601945277701,26.7129417080884, ,2,0,9.7,3,3.23
431401,3,1,1977,2,1.2,0.2,0.26,26.8,0,0,0.48,1009.42509053051,63,2.38601945277701,26.7129417080884, ,0,0,5.5,1,5.5
431401,3,1,1978,2,-2.7,0.4,0.9,26.4,0,0,-1.02,1009.42509053051,84,2.38601945277701,26.7129417080884, ,1,0,18.5,5,3.7
431401,3,1,1979,2,1,1.9,0.35,26.4,0,0,0.29,1009.42509053051,53,2.38601945277701,26.7129417080884, ,0,1,0,0,0
431401,3,1,1980,2,0.3,-0.8,0.61,26.5,0,0,-0.15,1009.42509053051,53,2.38601945277701,26.7129417080884, ,1,2,5.6,3,1.87
431401,3,1,1981,2,-0.2,0.2,-0.15,25.4,0,0,0.15,1009.42509053051,72.7179059978955,2.38601945277701,26.7129417080884, ,0,0,5.7,4,1.43
431401,3,1,1982,2,0.3,-0.7,-0.14,26.5,0,0,0.98,1009.42509053051,72.7179059978955,2.38601945277701,26.7129417080884, ,0,2,2.3,2,1.15
431401,3,1,1983,2,-3.6,1.6,2.9,28.6,0,0,-1.42,1009.42509053051,72.7179059978955,2.38601945277701,26.7129417080884, ,1,1,0,0,0
431401,3,1,1984,2,0.9,-1.4,-0.56,26.6,0,0,0.04,1009.42509053051,72.7179059978955,2.38601945277701,26.7129417080884, ,2,2,27.1,4,6.78
431401,3,1,1985,2,1.2,0.3,-0.61,25.8,0,0,-1.23,1009.42509053051,72.7179059978955,2.38601945277701,26.7129417080884, ,2,0,11.1,3,3.7
431401,3,1,1986,2,-1,-0.1,-0.18,26,0,0,-0.45,1009.42509053051,62,2.38601945277701,26.7129417080884, ,0,0,8.7,2,4.35
431401,3,1,1987,2,-1.2,0,1.18,27.3,0,0,0.06,1009.42509053051,69,2.38601945277701,26.7129417080884, ,1,0,14.1,4,3.53
431401,3,1,1988,2,-0.4,0.1,0.66,26.2,0,0,0.58,1009.42509053051,62,2.38601945277701,26.7129417080884, ,1,0,64.9,6,10.82
431401,3,1,1989,2,1.2,1,-1.32,25.4,0,0,-0.03,1011.44,63,1.3,26,135,2,1,0,0,0
431401,3,1,1990,2,-1.8,0.7,0.52,26.5,0,0,-0.2,1011.97,59,1.2,26.9,45,1,1,5.3,2,2.65
431401,3,1,1991,2,0.3,-0.3,0.32,26.4,0,0,0.67,1012.29,64,1,25.8,45,0,0,0.2,1,0.2
431401,3,1,1992,2,-0.9,0.7,1.87,27.6,0,0,-1.1,1011.58,62,1.4,26.3,270,1,1,3.5,3,1.17
431401,3,1,1993,2,-0.7,0.2,1,26.6,0,0,-0.52,1012.89,63,1.2,25,45,1,0,21.1,1,21.1
431401,3,1,1994,2,0.3,0.3,0.19,26.1,0,0,0.29,1009.32,59,1.9,28.4,270,0,0,10.1,3,3.37
431401,3,1,1995,2,-0.1,-0.9,0.97,26.8,0,0,0.28,1012.35,62,3.7,26.1,270,1,2,12.8,3,4.27
431401,3,1,1996,2,0.3,-0.8,-0.59,25.7,0,0,-0.35,1013.03,63,4.4,24.3,45,2,2,11,2,5.5
431401,3,1,1997,2,1.7,-0.1,-0.6,25.9,0,0,-0.44,1010.81,62,4,26.3,45,2,0,0,0,0
431401,3,1,1998,2,-2,-0.4,2.77,28.8,0,0,1.13,1011.89,64,2.1,28.7,270,1,0,2.3,4,0.58
431401,3,1,1999,2,1,-0.2,-1.25,25.5,0,0,-0.56,1012.92,70,2.1,26.1,45,2,0,0.3,1,0.3
431401,3,1,2000,2,1.7,0.6,-1.25,25.3,0,0,-0.12,1011.08,71,1.4,24.7,90,2,1,7.2,4,1.8
431401,3,1,2001,2,1.7,-1.2,-0.73,26,0,0,-0.33,1009.99,64,0.8,26.9,90,2,2,18.2,1,18.2
431401,3,1,2002,2,1.1,1.5,-0.21,26.3,0,0,-0.14,1013.16,69,0.8,27.2,45,0,1,2.1,2,1.05
431401,3,1,2003,2,-0.7,2.4,0.93,26.8,0,0,0.04,1012.14,68,0.8,26.4,90,1,1,26.7,5,5.34
431401,3,1,2004,2,1.2,-0.5,0.33,26.5,0,0,0.62,1012.45,62,1.1,24.8,45,0,0,48,6,8
431401,3,1,2005,2,-3.1,-0.6,0.8,26.1,0,0,-0.86,1010.81,65,0.5,28.9,0,1,2,0.6,1,0.6
431401,3,1,2006,2,0.1,-1.4,-0.46,26,0,0,-1.04,1012.11,62,1,26.9,45,0,2,34.7,4,8.68
431401,3,1,2007,2,-0.1,-0.4,0.51,26.4,0,0,0.07,1011.53,64,1,27,45,1,0,11.6,4,2.9
431401,3,1,2008,2,2.6,-0.6,-1.41,25,0,0,-0.63,1012.95,63,1.7,24.5,45,2,2,1.2,5,0.24
431401,3,1,2009,2,1.9,-0.2,-0.73,25.8,0,0,0.13,1009.64,69,0.8,27.6,45,2,0,34.2,1,34.2
431401,3,1,2010,2,-1.5,-1,1.52,27.2,0,0,1.25,1010.75,68,0.8,28.3,45,1,2,59.1,6,9.85
431401,3,1,2011,2,2.7,-0.6,-1.56,25.6,0,0,0,1010.01,67,0.9,26.4,45,2,2,15.7,6,2.62
431401,3,1,2012,2,0.5,-0.2,-0.71,26.2,0,0,0,1009.38,65,0.9,27.7,135,2,0,0,0,0
431401,3,1,2013,2,-0.2,-0.8,-0.17,25.9,0,0,0,1011.09,65,1.4,28.1,45,0,2,7.5,2,3.75
432201,3,1,1953,2,-0.5,-0.1,0.38,26.6,0,0,0,1014.06,61,3,27.3,45,0,0,25.8,4,6.45
432201,3,1,1954,2,-0.3,0.5,-0.02,26.2,0,0,0,1012.11,59,3,27,45,0,0,2.3,1,2.3
432201,3,1,1955,2,1.9,-0.3,-0.71,25.7,0,0,0,1009.66,55,2.5,27.8,180,2,0,6.9,1,6.9
432201,3,1,1956,2,1.6,2.1,-1.3,25.8,0,0,0,1009.94,64,2.2,27.8,180,2,1,31.7,5,6.34
432201,3,1,1957,2,-0.1,0,-0.35,26.1,0,0,0,1012.25,58,3,26.7,45,0,0,0.9,1,0.9
432201,3,1,1958,2,-0.5,0,1.45,27.2,0,0,0.22,1013.77,71,3,26.5,45,1,0,0.9,2,0.45
432201,3,1,1959,2,-1.4,-0.4,0.81,26.1,0,0,0.01,1010.95,62,3.1,28.1,135,1,0,9.8,4,2.45
432201,3,1,1960,2,0.1,0.8,-0.27,25.9,0,0,0,1012.5,58,5.4,25.7,45,0,1,0,0,0
432201,3,1,1961,2,0.9,-0.7,-0.27,26.3,0,0,-0.28,1009.87,62,3.3,27.5,45,0,2,0.6,2,0.3
432201,3,1,1962,2,-0.3,-1.7,-0.99,26.2,0,0,1.78,1013.38,59,4.6,25.4,45,2,2,3.8,1,3.8
432201,3,1,1963,2,0.6,-0.5,-0.82,25.8,0,0,0.82,1013.67,58,3.4,25.1,45,2,0,0.6,2,0.3
432201,3,1,1964,2,0,0.5,0.44,26.3,0,0,-1.18,1012.69,59,3.2,26.2,45,0,0,4.2,2,2.1
432201,3,1,1965,2,0.4,0.7,-0.32,26,0,0,-0.72,1009.99,64,2.1,27.5,45,0,1,16,5,3.2
432201,3,1,1966,2,-0.2,1.5,1.18,26.8,0,0,-0.51,1010.94,64,2.6,28.1,45,1,1,5.1,3,1.7
432201,3,1,1967,2,1.7,0.9,-0.94,26.2,0,0,0.31,1012.31,62,2.8,25.1,45,2,1,0,0,0
432201,3,1,1968,2,1.3,-1.1,-0.68,24.9,0,0,1.26,1012.33,62,3.3,25.8,45,2,2,5.2,1,5.2
432201,3,1,1969,2,-0.5,-0.8,0.87,26.6,0,0,-0.04,1011.44,62,2.8,27.4,180,1,2,10.9,2,5.45
432201,3,1,1970,2,-1,0.2,0.41,26.5,0,0,0.69,1012.56,63,2,26.9,45,0,0,62.8,2,31.4
432201,3,1,1971,2,2,-0.7,-1.52,24.7,0,0,0.19,1010.92,59,2.3,25.5,90,2,2,10.6,4,2.65
432201,3,1,1972,2,1.1,0,-0.42,26.1,0,0,0.1,1009.58,67,2,26.4,180,0,0,30.7,5,6.14
432201,3,1,1973,2,-1.4,-0.5,1.47,27.2,0,0,0.27,1012.42,61,2,27.8,180,1,0,0,0,0
432201,3,1,1974,2,2.1,0.1,-1.79,25,0,0,0.8,1011.81,63,2.7,24.6,45,2,0,16.2,2,8.1
432201,3,1,1975,2,0.8,1.1,-0.61,25.6,0,0,-0.59,1011.63,66,1.9,26.8,90,2,1,4.5,1,4.5
432201,3,1,1976,2,1.7,0.3,-1.4,25.1,0,0,0.58,1010.71,65,1.9,26.4,180,2,0,2.7,2,1.35
432201,3,1,1977,2,1.2,-0.2,0.26,26.8,0,0,0.48,1014.46,63,2.7,23.4,45,0,0,0,0,0
432201,3,1,1978,2,-2.7,0.9,0.9,26.4,0,0,-1.02,1014.29,63,2.8,26.2,360,1,1,1.8,1,1.8
432201,3,1,1979,2,1,-0.2,0.35,26.4,0,0,0.29,1010.93,60,2.5,27.4,180,0,0,0,0,0
432201,3,1,1980,2,0.3,-0.2,0.61,26.5,0,0,-0.15,1012.39,57,2.3,26.9,45,1,0,0.2,1,0.2
432201,3,1,1981,2,-0.2,0.1,-0.15,25.4,0,0,0.15,1011.24,64,2.5,26.9,45,0,0,43.9,5,8.78
432201,3,1,1982,2,0.3,-0.6,-0.14,26.5,0,0,0.98,1011.11,64,1.9,27,180,0,2,0,0,0
432201,3,1,1983,2,-3.6,1.1,2.9,28.6,0,0,-1.42,1011.94,64,1.8,27.6,135,1,1,0,0,0
432201,3,1,1984,2,0.9,-0.8,-0.56,26.6,0,0,0.04,1010.53,65,2.6,26.4,45,2,2,8.2,2,4.1
432201,3,1,1985,2,1.2,0.3,-0.61,25.8,0,0,-1.23,1007.09,62,1.5,27.8,180,2,0,4.4,2,2.2
432201,3,1,1986,2,-1,1.7,-0.18,26,0,0,-0.45,1011.46,60,2,26.5,45,0,1,0,0,0
432201,3,1,1987,2,-1.2,-1.9,1.18,27.3,0,0,0.06,1013.8,71,2.1,26.7,45,1,2,2.5,2,1.25
432201,3,1,1988,2,-0.4,-0.2,0.66,26.2,0,0,0.58,1011.34,60,2,26.9,45,1,0,53.5,3,17.83
432201,3,1,1989,2,1.2,1,-1.32,25.4,0,0,-0.03,1011.39,64,2.3,25.8,45,2,1,0,0,0
432201,3,1,1990,2,-1.8,-0.3,0.52,26.5,0,0,-0.2,1011.96,60,1.6,26.8,45,1,0,40.5,3,13.5
432201,3,1,1991,2,0.3,-0.6,0.32,26.4,0,0,0.67,1012.24,68,2,26,45,0,2,0,0,0
432201,3,1,1992,2,-0.9,0.4,1.87,27.6,0,0,-1.1,1011.72,59,1.9,25.9,225,1,0,36.3,8,4.54
432201,3,1,1993,2,-0.7,0.8,1,26.6,0,0,-0.52,1012.58,64,2.4,25.4,45,1,1,4.6,4,1.15
432201,3,1,1994,2,0.3,0.5,0.19,26.1,0,0,0.29,1009.57,60,1.7,27.9,45,0,0,39.7,4,9.93
432201,3,1,1995,2,-0.1,1.2,0.97,26.8,0,0,0.28,1012.5,62,2.5,26,45,1,1,0.6,1,0.6
432201,3,1,1996,2,0.3,-0.6,-0.59,25.7,0,0,-0.35,1013.01,67,3.3,24.2,45,2,2,3.9,1,3.9
432201,3,1,1997,2,1.7,-1.1,-0.6,25.9,0,0,-0.44,1010.83,63,1.9,25.9,45,2,2,12.3,3,4.1
432201,3,1,1998,2,-2,-0.3,2.77,28.8,0,0,1.13,1011.89,60,2,28.6,225,1,0,2.3,2,1.15
432201,3,1,1999,2,1,-0.3,-1.25,25.5,0,0,-0.56,1012.95,66,2.6,25.8,45,2,0,0,0,0
432201,3,1,2000,2,1.7,0.5,-1.25,25.3,0,0,-0.12,1011.06,62,1.9,24.8,45,2,0,32.7,6,5.45
432201,3,1,2001,2,1.7,-0.9,-0.73,26,0,0,-0.33,1010.03,65,1.6,26.6,45,2,2,0.8,1,0.8
432201,3,1,2002,2,1.1,0.8,-0.21,26.3,0,0,-0.14,1013.41,66,1.7,26.6,45,0,1,1.9,2,0.95
432201,3,1,2003,2,-0.7,0.2,0.93,26.8,0,0,0.04,1012.05,67,1.6,26.7,45,1,0,8.8,3,2.93
432201,3,1,2004,2,1.2,-1.2,0.33,26.5,0,0,0.62,1012.28,58,1.3,25.1,45,0,2,5,4,1.25
432201,3,1,2005,2,-3.1,-1.9,0.8,26.1,0,0,-0.86,1011.17,61,1.2,28.6,180,1,2,0,0,0
432201,3,1,2006,2,0.1,-1.5,-0.46,26,0,0,-1.04,1011.99,59,1.8,27,45,0,2,0.1,2,0.05
432201,3,1,2007,2,-0.1,-0.6,0.51,26.4,0,0,0.07,1011.43,63,1.1,27.3,135,1,2,21.1,3,7.03
432201,3,1,2008,2,2.6,-0.4,-1.41,25,0,0,-0.63,1013.14,61,3,23.8,360,2,0,0.3,2,0.15
432201,3,1,2009,2,1.9,-0.3,-0.73,25.8,0,0,0.13,1009.53,64,2.2,27.8,360,2,0,13.4,1,13.4
432201,3,1,2010,2,-1.5,0,1.52,27.2,0,0,1.25,1010.67,64,1.7,28.9,180,1,0,6.9,1,6.9
432201,3,1,2011,2,2.7,-0.6,-1.56,25.6,0,0,0,1010.05,63,2.4,26.8,0,2,2,56.9,5,11.38
432201,3,1,2012,2,0.5,-0.3,-0.71,26.2,0,0,0,1009.42,60,2.5,27.6,360,2,0,3.9,2,1.95
432201,3,1,2013,2,-0.2,-0.4,-0.17,25.9,0,0,0,1010.97,60,2.6,28.1,45,0,0,13.4,1,13.4
432301,3,1,2006,2,0.1,-1.5,-0.46,26,0,0,-1.04,1012.59,64,1.1,26.7,45,0,2,0.5,3,0.17
432301,3,1,2007,2,-0.1,-0.5,0.51,26.4,0,0,0.07,1012.03,64,2.38746715462059,26.6,0,1,0,4.4,3,1.47
432301,3,1,2008,2,2.6,-0.4,-1.41,25,0,0,-0.63,1013.71,67,2.3,23.5,45,2,0,0.4,1,0.4
432301,3,1,2009,2,1.9,-0.3,-0.73,25.8,0,0,0.13,1010.18,70,1,27,135,2,0,7.1,1,7.1
432301,3,1,2010,2,-1.5,-1.5,1.52,27.2,0,0,1.25,1011.44,68,0.3,28.2,180,1,2,9,3,3
432301,3,1,2011,2,2.7,-0.6,-1.56,25.6,0,0,0,1010.69,70,1.2,26.2,45,2,2,21.1,4,5.28
432301,3,1,2012,2,0.5,-0.3,-0.71,26.2,0,0,0,1009.87,66,1,26.7,45,2,0,2.5,1,2.5
432301,3,1,2013,2,-0.2,-0.4,-0.17,25.9,0,0,0,1011.34,66,1.3,27.1,45,0,0,28.2,1,28.2
432401,3,3,1970,2,-1,0.6,0.41,26.5,0,0,0.69,1009.42509053051,54,2.38601945277701,26.7129417080884, ,0,1,1.4,1,1.4
432401,3,3,1971,2,2,-0.7,-1.52,24.7,0,0,0.19,1009.42509053051,79,2.38601945277701,26.7129417080884, ,2,2,15.6,1,15.6
432401,3,3,1972,2,1.1,-0.2,-0.42,26.1,0,0,0.1,1009.42509053051,86,2.38601945277701,26.7129417080884, ,0,0,78.6,6,13.1
432401,3,3,1973,2,-1.4,-0.3,1.47,27.2,0,0,0.27,1009.42509053051,82,2.38601945277701,26.7129417080884, ,1,0,0,0,0
432401,3,3,1974,2,2.1,0.1,-1.79,25,0,0,0.8,1009.42509053051,81,2.38601945277701,26.7129417080884, ,2,0,3.4,1,3.4
432401,3,3,1975,2,0.8,1.1,-0.61,25.6,0,0,-0.59,1009.42509053051,57,2.38601945277701,26.7129417080884, ,2,1,3.4,5,0.68
432401,3,3,1976,2,1.7,0.3,-1.4,25.1,0,0,0.58,1009.42509053051,57,2.38601945277701,26.7129417080884, ,2,0,1.3,2,0.65
432401,3,3,1977,2,1.2,0.3,0.26,26.8,0,0,0.48,1009.42509053051,55,2.38601945277701,26.7129417080884, ,0,0,3.1,1,3.1
432401,3,3,1978,2,-2.7,0.3,0.9,26.4,0,0,-1.02,1009.42509053051,77,2.38601945277701,26.7129417080884, ,1,0,5.7,2,2.85
432401,3,3,1979,2,1,1.6,0.35,26.4,0,0,0.29,1009.42509053051,53,2.38601945277701,26.7129417080884, ,0,1,0,0,0
432401,3,3,1980,2,0.3,-0.5,0.61,26.5,0,0,-0.15,1009.42509053051,55,2.38601945277701,26.7129417080884, ,1,0,2.1,1,2.1
432401,3,3,1981,2,-0.2,0.1,-0.15,25.4,0,0,0.15,1009.42509053051,72.7179059978955,2.38601945277701,26.7129417080884, ,0,0,16.3,4,4.08
432401,3,3,1982,2,0.3,-0.6,-0.14,26.5,0,0,0.98,1009.42509053051,72.7179059978955,2.38601945277701,26.7129417080884, ,0,2,0,0,0
432401,3,3,1983,2,-3.6,1.4,2.9,28.6,0,0,-1.42,1009.42509053051,72.7179059978955,2.38601945277701,26.7129417080884, ,1,1,23.3,3,7.77
432401,3,3,1984,2,0.9,-1.2,-0.56,26.6,0,0,0.04,1009.42509053051,72.7179059978955,2.38601945277701,26.7129417080884, ,2,2,0.8,1,0.8
432401,3,3,1985,2,1.2,0.3,-0.61,25.8,0,0,-1.23,1009.42509053051,72.7179059978955,2.38601945277701,26.7129417080884, ,2,0,11.4,4,2.85
432401,3,3,1986,2,-1,-0.3,-0.18,26,0,0,-0.45,1009.42509053051,62,2.38601945277701,26.7129417080884, ,0,0,0,0,0
432401,3,3,1987,2,-1.2,-0.2,1.18,27.3,0,0,0.06,1009.42509053051,67,2.38601945277701,26.7129417080884, ,1,0,4.2,2,2.1
432401,3,3,1988,2,-0.4,0.1,0.66,26.2,0,0,0.58,1009.42509053051,61,2.38601945277701,26.7129417080884, ,1,0,47.7,1,47.7
432401,3,3,1989,2,1.2,1,-1.32,25.4,0,0,-0.03,1011.72,67,1.2,25.5,45,2,1,0,0,0
432401,3,3,1990,2,-1.8,0.5,0.52,26.5,0,0,-0.2,1012.53,61,0.7,26.5,90,1,0,55.1,5,11.02
432401,3,3,1991,2,0.3,-0.4,0.32,26.4,0,0,0.67,1012.3,70,1.4,25.8,45,0,0,0.3,1,0.3
432401,3,3,1992,2,-0.9,0.5,1.87,27.6,0,0,-1.1,1011.69,60,1.5,26.1,45,1,0,25,5,5
432401,3,3,1993,2,-0.7,0,1,26.6,0,0,-0.52,1013.06,64,1.8,25.3,45,1,0,7,1,7
432401,3,3,1994,2,0.3,0.3,0.19,26.1,0,0,0.29,1009.47,60,1.3,28.1,45,0,0,31.7,4,7.93
432401,3,3,1995,2,-0.1,-0.9,0.97,26.8,0,0,0.28,1012.46,62,2,26,45,1,2,6.6,3,2.2
432401,3,3,1996,2,0.3,-0.6,-0.59,25.7,0,0,-0.35,1013.05,69,1.7,24.1,45,2,2,0,0,0
432401,3,3,1997,2,1.7,-0.2,-0.6,25.9,0,0,-0.44,1011.08,65,0.7,25.7,45,2,0,4.1,2,2.05
432401,3,3,1998,2,-2,-0.3,2.77,28.8,0,0,1.13,1012.06,62,0.8,28.6,180,1,0,18.4,4,4.6
432401,3,3,1999,2,1,-0.3,-1.25,25.5,0,0,-0.56,1013.09,67,2.1,26.1,45,2,0,0,0,0
432401,3,3,2000,2,1.7,0.5,-1.25,25.3,0,0,-0.12,1011.15,65,1.7,24.5,45,2,0,113.7,6,18.95
432401,3,3,2001,2,1.7,-0.9,-0.73,26,0,0,-0.33,1010.1,69,1.1,26.3,45,2,2,4.4,2,2.2
432401,3,3,2002,2,1.1,1.9,-0.21,26.3,0,0,-0.14,1013.41,70,0.9,25.9,45,0,1,8.4,1,8.4
432401,3,3,2003,2,-0.7,2.3,0.93,26.8,0,0,0.04,1012.03,69,1.5,26.5,45,1,1,61.5,3,20.5
432401,3,3,2004,2,1.2,-0.4,0.33,26.5,0,0,0.62,1012.28,59,1.4,24.7,45,0,0,12,4,3
432401,3,3,2005,2,-3.1,-0.3,0.8,26.1,0,0,-0.86,1010.92,63,1.4,28.7,180,1,0,0,0,0
432401,3,3,2006,2,0.1,-1.5,-0.46,26,0,0,-1.04,1011.99,62,2.2,27,45,0,2,0,2,0
432401,3,3,2007,2,-0.1,-0.4,0.51,26.4,0,0,0.07,1011.39,65,1.5,27,45,1,0,24.4,4,6.1
432401,3,3,2008,2,2.6,-0.4,-1.41,25,0,0,-0.63,1013.37,66,2.1,23.3,45,2,0,1.1,2,0.55
432401,3,3,2009,2,1.9,-0.3,-0.73,25.8,0,0,0.13,1009.68,72,0.7,27.2,45,2,0,0,1,0
432401,3,3,2010,2,-1.5,-1,1.52,27.2,0,0,1.25,1010.86,71,0.9,28.4,180,1,2,5.2,3,1.73
432401,3,3,2011,2,2.7,-0.6,-1.56,25.6,0,0,0,1010.38,73,1,26,45,2,2,9.5,1,9.5
432401,3,3,2012,2,0.5,-0.3,-0.71,26.2,0,0,0,1009.78,66,0.9,26.7,180,2,0,2.3,1,2.3
432401,3,3,2013,2,-0.2,-0.4,-0.17,25.9,0,0,0,1011.52,66,1.6,28.1,90,0,0,0,0,0
436201,3,1,2003,2,-0.7,-0.7,0.93,26.8,0,0,0.04,1012.22,67,3.3,26,45,1,2,48.1,4,12.03
436201,3,1,2004,2,1.2,1.1,0.33,26.5,0,0,0.62,1012.4,53,3.8,24.7,45,0,1,18.5,5,3.7
436201,3,1,2005,2,-3.1,-0.1,0.8,26.1,0,0,-0.86,1011.53,60,3.7,28.7,180,1,0,0,0,0
436201,3,1,2006,2,0.1,-1.5,-0.46,26,0,0,-1.04,1012.74,56,4.3,26.9,45,0,2,1.6,4,0.4
436201,3,1,2007,2,-0.1,0.7,0.51,26.4,0,0,0.07,1011.94,61,3.4,27.1,45,1,1,4.7,4,1.18
436201,3,1,2008,2,2.6,-0.4,-1.41,25,0,0,-0.63,1013.79,60,3.7,23.2,45,2,0,1.7,4,0.43
436201,3,1,2009,2,1.9,-0.3,-0.73,25.8,0,0,0.13,1010.25,68,2.7,27.4,45,2,0,0,0,0
436201,3,1,2010,2,-1.5,1.6,1.52,27.2,0,0,1.25,1011.25,62,2.2,28,180,1,1,68,5,13.6
436201,3,1,2011,2,2.7,-0.6,-1.56,25.6,0,0,0,1010.5,68,2.4,26.4,45,2,2,0.5,1,0.5
436201,3,1,2012,2,0.5,-0.3,-0.71,26.2,0,0,0,1009.9,62,1.4,26.5,45,2,0,57.1,1,57.1
436201,3,1,2013,2,-0.2,-0.4,-0.17,25.9,0,0,0,1011.3,62,1.9,27.3,45,0,0,0,0,0
436401,3,1,1968,2,1.3,-1.1,-0.68,24.9,0,0,1.26,1014.83,62,3.4,23.7,90,2,2,0.5,4,0.13
436401,3,1,1969,2,-0.5,0.9,0.87,26.6,0,0,-0.04,1012.82,61,3,25.8,45,1,1,0,3,0
436401,3,1,1970,2,-1,0.6,0.41,26.5,0,0,0.69,1014.13,61,2.3,26.2,45,0,1,0,4,0
436401,3,1,1971,2,2,-0.7,-1.52,24.7,0,0,0.19,1011.35,59,3.4,23.9,90,2,2,8.7,3,2.9
436401,3,1,1972,2,1.1,0,-0.42,26.1,0,0,0.1,1009.23,62,3.6,24.4,90,0,0,0.3,2,0.15
436401,3,1,1973,2,-1.4,-1.3,1.47,27.2,0,0,0.27,1012.06,61,2.1,26,90,1,2,0,0,0
436401,3,1,1974,2,2.1,0.1,-1.79,25,0,0,0.8,1012.58,60,2.5,22.1,90,2,0,0.1,1,0.1
436401,3,1,1975,2,0.8,1.1,-0.61,25.6,0,0,-0.59,1012.04,67,2.5,24.7,90,2,1,28.6,1,28.6
436401,3,1,1976,2,1.7,0.3,-1.4,25.1,0,0,0.58,1010.85,68,1.9,24,90,2,0,24.2,3,8.07
436401,3,1,1977,2,1.2,-1.5,0.26,26.8,0,0,0.48,1015.23,62,2.6,21.7,360,0,2,0,0,0
436401,3,1,1978,2,-2.7,-0.3,0.9,26.4,0,0,-1.02,1014.83,70,2.3,23.6,90,1,0,23.5,2,11.75
436401,3,1,1979,2,1,1,0.35,26.4,0,0,0.29,1010.86,66,1.4,25.6,90,0,1,26,1,26
436401,3,1,1980,2,0.3,0.5,0.61,26.5,0,0,-0.15,1012.62,60,1.8,24.6,90,1,0,2.2,4,0.55
436401,3,1,1981,2,-0.2,0.1,-0.15,25.4,0,0,0.15,1011.05,64,2.38601945277701,25.8,90,0,0,8.9,3,2.97
436401,3,1,1982,2,0.3,-0.7,-0.14,26.5,0,0,0.98,1011.21,68,2.38601945277701,24.9,90,0,2,12.6,1,12.6
436401,3,1,1983,2,-3.6,0.3,2.9,28.6,0,0,-1.42,1012.34,71,1,25,90,1,0,19.8,4,4.95
436401,3,1,1984,2,0.9,-0.9,-0.56,26.6,0,0,0.04,1011.09,63,1.5,25.3,90,2,2,4.3,2,2.15
436401,3,1,1985,2,1.2,0.3,-0.61,25.8,0,0,-1.23,1007.43,73,0.9,24.8,90,2,0,20.8,3,6.93
436401,3,1,1986,2,-1,1.4,-0.18,26,0,0,-0.45,1011.78,65,1.7,24.7,90,0,1,1.6,0,1.6
436401,3,1,1987,2,-1.2,0.7,1.18,27.3,0,0,0.06,1014.28,68,1.6,24.8,45,1,1,14.7,2,7.35
436401,3,1,1988,2,-0.4,-0.2,0.66,26.2,0,0,0.58,1011.76,68,1.9,25.8,90,1,0,30.3,4,7.58
436401,3,1,1989,2,1.2,1,-1.32,25.4,0,0,-0.03,1012.09,62,1.5,24.3,90,2,1,4,0,4
436401,3,1,1990,2,-1.8,-2,0.52,26.5,0,0,-0.2,1013.24,69,1.5,24.8,90,1,2,20.1,3,6.7
436401,3,1,1991,2,0.3,-0.7,0.32,26.4,0,0,0.67,1013.39,64,1.1,24.4,90,0,2,0,0,0
436401,3,1,1992,2,-0.9,0.3,1.87,27.6,0,0,-1.1,1012.42,68,1,23.8,90,1,0,22.3,6,3.72
436401,3,1,1993,2,-0.7,-1.5,1,26.6,0,0,-0.52,1013.76,63,1.1,24.1,90,1,2,9.5,1,9.5
436401,3,1,1994,2,0.3,-0.1,0.19,26.1,0,0,0.29,1009.86,66,1,26.3,45,0,0,60.2,6,10.03
436401,3,1,1995,2,-0.1,0.5,0.97,26.8,0,0,0.28,1013.33,62,1,23.7,90,1,0,0.3,3,0.1
436401,3,1,1996,2,0.3,-0.6,-0.59,25.7,0,0,-0.35,1014.56,67,1.4,22,45,2,2,37.6,1,37.6
436401,3,1,1997,2,1.7,0.5,-0.6,25.9,0,0,-0.44,1011.95,68,0.9,23.9,90,2,0,2.4,0,2.4
436401,3,1,1998,2,-2,-0.4,2.77,28.8,0,0,1.13,1012.38,65,0.8,25.8,45,1,0,20.2,4,5.05
436401,3,1,1999,2,1,-0.3,-1.25,25.5,0,0,-0.56,1013.98,62,1,25.2,45,2,0,0,0,0
436401,3,1,2000,2,1.7,0.5,-1.25,25.3,0,0,-0.12,1011.94,67,0.9,23.8,45,2,0,31.9,6,5.32
436401,3,1,2001,2,1.7,-0.9,-0.73,26,0,0,-0.33,1010.81,65,1,25.7,90,2,2,9.1,1,9.1
436401,3,1,2002,2,1.1,0.2,-0.21,26.3,0,0,-0.14,1014.04,67,0.9,25.3,45,0,0,18.5,3,6.17
436401,3,1,2003,2,-0.7,-0.3,0.93,26.8,0,0,0.04,1012.76,73,0.7,25.2,45,1,0,44.3,6,7.38
436401,3,1,2004,2,1.2,0.3,0.33,26.5,0,0,0.62,1013.11,72,1.2,23.3,90,0,0,77.6,5,15.52
436401,3,1,2005,2,-3.1,-0.1,0.8,26.1,0,0,-0.86,1011.1,60,0.9,27.3,45,1,0,0,0,0
436401,3,1,2006,2,0.1,-1.5,-0.46,26,0,0,-1.04,1013.07,64,1.8,26.1,90,0,2,5,4,1.25
436401,3,1,2007,2,-0.1,0,0.51,26.4,0,0,0.07,1011.84,61,1.4,25.6,45,1,0,2,2,1
436401,3,1,2008,2,2.6,-0.4,-1.41,25,0,0,-0.63,1014.79,70,2.8,21.4,90,2,0,39,1,39
436401,3,1,2009,2,1.9,-0.3,-0.73,25.8,0,0,0.13,1009.87,64,2.5,27.1,90,2,0,0.9,2,0.45
436401,3,1,2010,2,-1.5,0.9,1.52,27.2,0,0,1.25,1011.16,64,2.4,26.8,90,1,1,2.4,4,0.6
436401,3,1,2011,2,2.7,-0.6,-1.56,25.6,0,0,0,1010.71,65,2.7,25.4,90,2,2,0,2,0
436401,3,1,2012,2,0.5,-0.3,-0.71,26.2,0,0,0,1010.18,69,2.6,25.6,45,2,0,43.9,1,43.9
436401,3,1,2013,2,-0.2,-0.4,-0.17,25.9,0,0,0,1011.96,64,2.1,26.9,90,0,0,2.3,1,2.3
